risc_v.vcd
$version Generated by VerilatedVcd $end
$date Sun Nov 27 23:14:47 2022 $end
$timescale 1ps $end

 $scope module TOP $end
  $var wire 32 [ a0 [31:0] $end
  $var wire  1 Y clk $end
  $var wire 32 \ instruction [31:0] $end
  $var wire  8 ] pc_addr [7:0] $end
  $var wire  1 Z rst $end
  $scope module risc_v $end
   $var wire 32 ^ ADDRESS_WIDTH [31:0] $end
   $var wire  3 - ALUctrl [2:0] $end
   $var wire 32 1 ALUop1 [31:0] $end
   $var wire 32 2 ALUop2 [31:0] $end
   $var wire 32 4 ALUout [31:0] $end
   $var wire  1 & ALUsrc $end
   $var wire 32 ^ DATA_WIDTH [31:0] $end
   $var wire  1 $ EQ $end
   $var wire 32 ( ImmOp [31:0] $end
   $var wire 12 / ImmSrc [11:0] $end
   $var wire  1 _ MEMWrite $end
   $var wire 32 5 MEMdata [31:0] $end
   $var wire  1 ' MEMsrc $end
   $var wire  1 # PCsrc $end
   $var wire  1 % RegWrite $end
   $var wire 32 [ a0 [31:0] $end
   $var wire  1 Y clk $end
   $var wire 32 . instr [31:0] $end
   $var wire 32 \ instruction [31:0] $end
   $var wire 32 0 next_PC [31:0] $end
   $var wire 32 ) pc [31:0] $end
   $var wire  8 ] pc_addr [7:0] $end
   $var wire  5 , rd [4:0] $end
   $var wire 32 3 regOp2 [31:0] $end
   $var wire  5 * rs1 [4:0] $end
   $var wire  5 + rs2 [4:0] $end
   $var wire  1 Z rst $end
   $scope module alu $end
    $var wire  3 - ALUctrl [2:0] $end
    $var wire 32 1 ALUop1 [31:0] $end
    $var wire 32 2 ALUop2 [31:0] $end
    $var wire 32 4 ALUout [31:0] $end
    $var wire 32 ` CONTROL_WIDTH [31:0] $end
    $var wire  1 $ EQ $end
    $var wire 32 ^ INPUT_WIDTH [31:0] $end
   $upscope $end
   $scope module alusrc $end
    $var wire 32 2 ALUop2 [31:0] $end
    $var wire  1 & ALUsrc $end
    $var wire 32 ( ImmOp [31:0] $end
    $var wire 32 ^ WIDTH [31:0] $end
    $var wire 32 3 regOp2 [31:0] $end
   $upscope $end
   $scope module data_mem $end
    $var wire  8 6 A [7:0] $end
    $var wire 32 a ADDRESS_WIDTH [31:0] $end
    $var wire 32 ^ DATA_WIDTH [31:0] $end
    $var wire 32 5 RD [31:0] $end
    $var wire 32 2 WD [31:0] $end
    $var wire  1 _ WE $end
    $var wire  1 Y clk $end
   $upscope $end
   $scope module my_control_unit $end
    $var wire  3 - ALUctrl [2:0] $end
    $var wire  1 & ALUsrc $end
    $var wire 32 ^ DATA_WIDTH [31:0] $end
    $var wire  1 $ EQ $end
    $var wire 12 / ImmSrc [11:0] $end
    $var wire  1 _ MEMWrite $end
    $var wire  1 ' MEMsrc $end
    $var wire  1 # PCsrc $end
    $var wire  1 % RegWrite $end
    $var wire 32 . instr [31:0] $end
   $upscope $end
   $scope module my_instr_mem $end
    $var wire 32 a ADDRESS_WIDTH [31:0] $end
    $var wire 32 ^ DATA_WIDTH [31:0] $end
    $var wire 32 . instr [31:0] $end
    $var wire  8 7 pc [7:0] $end
   $upscope $end
   $scope module my_sign_extend $end
    $var wire 32 ^ DATA_WIDTH [31:0] $end
    $var wire 32 b IMM_WIDTH [31:0] $end
    $var wire 32 ( ImmOp [31:0] $end
    $var wire 12 / ImmSrc [11:0] $end
    $var wire 32 . instr [31:0] $end
   $upscope $end
   $scope module pcReg $end
    $var wire 32 ^ WIDTH [31:0] $end
    $var wire  1 Y clk $end
    $var wire 32 0 next_PC [31:0] $end
    $var wire 32 ) pc [31:0] $end
    $var wire  1 Z rst $end
   $upscope $end
   $scope module pc_mux $end
    $var wire 32 ( ImmOp [31:0] $end
    $var wire  1 # PCsrc $end
    $var wire 32 ^ WIDTH [31:0] $end
    $var wire 32 0 next_PC [31:0] $end
    $var wire 32 ) pc [31:0] $end
   $upscope $end
   $scope module reg_file $end
    $var wire  5 * AD1 [4:0] $end
    $var wire  5 + AD2 [4:0] $end
    $var wire  5 , AD3 [4:0] $end
    $var wire 32 c ADDRESS_WIDTH [31:0] $end
    $var wire 32 ^ DATA_WIDTH [31:0] $end
    $var wire 32 1 RD1 [31:0] $end
    $var wire 32 3 RD2 [31:0] $end
    $var wire 32 8 WD3 [31:0] $end
    $var wire  1 % WE3 $end
    $var wire 32 [ a0 [31:0] $end
    $var wire  1 Y clk $end
    $var wire 32 9 regfile[0] [31:0] $end
    $var wire 32 C regfile[10] [31:0] $end
    $var wire 32 D regfile[11] [31:0] $end
    $var wire 32 E regfile[12] [31:0] $end
    $var wire 32 F regfile[13] [31:0] $end
    $var wire 32 G regfile[14] [31:0] $end
    $var wire 32 H regfile[15] [31:0] $end
    $var wire 32 I regfile[16] [31:0] $end
    $var wire 32 J regfile[17] [31:0] $end
    $var wire 32 K regfile[18] [31:0] $end
    $var wire 32 L regfile[19] [31:0] $end
    $var wire 32 : regfile[1] [31:0] $end
    $var wire 32 M regfile[20] [31:0] $end
    $var wire 32 N regfile[21] [31:0] $end
    $var wire 32 O regfile[22] [31:0] $end
    $var wire 32 P regfile[23] [31:0] $end
    $var wire 32 Q regfile[24] [31:0] $end
    $var wire 32 R regfile[25] [31:0] $end
    $var wire 32 S regfile[26] [31:0] $end
    $var wire 32 T regfile[27] [31:0] $end
    $var wire 32 U regfile[28] [31:0] $end
    $var wire 32 V regfile[29] [31:0] $end
    $var wire 32 ; regfile[2] [31:0] $end
    $var wire 32 W regfile[30] [31:0] $end
    $var wire 32 X regfile[31] [31:0] $end
    $var wire 32 < regfile[3] [31:0] $end
    $var wire 32 = regfile[4] [31:0] $end
    $var wire 32 > regfile[5] [31:0] $end
    $var wire 32 ? regfile[6] [31:0] $end
    $var wire 32 @ regfile[7] [31:0] $end
    $var wire 32 A regfile[8] [31:0] $end
    $var wire 32 B regfile[9] [31:0] $end
   $upscope $end
  $upscope $end
 $upscope $end
$enddefinitions $end


#0
0#
0$
0%
0&
0'
b00000000000000000000000000000000 (
b00000000000000000000000000000000 )
b00000 *
b00000 +
b00000 ,
b000 -
b00000000000000000000000000000000 .
b000000000000 /
b00000000000000000000000000000100 0
b00000000000000000000000000000000 1
b00000000000000000000000000000000 2
b00000000000000000000000000000000 3
b00000000000000000000000000000000 4
b00000000000000000000000000000000 5
b00000000 6
b00000000 7
b00000000000000000000000000000000 8
b00000000000000000000000000000000 9
b00000000000000000000000000000000 :
b00000000000000000000000000000000 ;
b00000000000000000000000000000000 <
b00000000000000000000000000000000 =
b00000000000000000000000000000000 >
b00000000000000000000000000000000 ?
b00000000000000000000000000000000 @
b00000000000000000000000000000000 A
b00000000000000000000000000000000 B
b00000000000000000000000000000000 C
b00000000000000000000000000000000 D
b00000000000000000000000000000000 E
b00000000000000000000000000000000 F
b00000000000000000000000000000000 G
b00000000000000000000000000000000 H
b00000000000000000000000000000000 I
b00000000000000000000000000000000 J
b00000000000000000000000000000000 K
b00000000000000000000000000000000 L
b00000000000000000000000000000000 M
b00000000000000000000000000000000 N
b00000000000000000000000000000000 O
b00000000000000000000000000000000 P
b00000000000000000000000000000000 Q
b00000000000000000000000000000000 R
b00000000000000000000000000000000 S
b00000000000000000000000000000000 T
b00000000000000000000000000000000 U
b00000000000000000000000000000000 V
b00000000000000000000000000000000 W
b00000000000000000000000000000000 X
1Y
1Z
b00000000000000000000000000000000 [
b00000000000000000000000000000000 \
b00000000 ]
b00000000000000000000000000100000 ^
0_
b00000000000000000000000000000011 `
b00000000000000000000000000001000 a
b00000000000000000000000000001100 b
b00000000000000000000000000000101 c
#1
1%
1&
b00000000000000000000000011111111 (
b11111 +
b00110 ,
b00001111111100000000001100010011 .
b000011111111 /
b00000000000000000000000011111111 2
b00000000000000000000000011111111 4
b00000000000000000000000011111110 5
b00000000000000000000000011111111 8
0Y
b00001111111100000000001100010011 \
#2
b00000000000000000000000011111111 ?
1Y
0Z
#3
0Y
#4
1$
b00000000000000000000000000000000 (
b00000000000000000000000000000100 )
b00000 +
b01010 ,
b00000000000000000000010100010011 .
b000000000000 /
b00000000000000000000000000001000 0
b00000000000000000000000000000000 2
b00000000000000000000000000000000 4
b00000100 7
b00000000000000000000000000000000 8
1Y
b00000000000000000000010100010011 \
b00000100 ]
#5
0Y
#6
b00000000000000000000000000001000 )
b01011 ,
b00000000000000000000010110010011 .
b00000000000000000000000000001100 0
b00001000 7
1Y
b00000000000000000000010110010011 \
b00001000 ]
#7
0Y
#8
0$
b00000000000000000000000000000001 (
b00000000000000000000000000001100 )
b01011 *
b00001 +
b00000000000101011000010110010011 .
b000000000001 /
b00000000000000000000000000010000 0
b00000000000000000000000000000001 2
b00000000000000000000000000000001 4
b00001100 7
b00000000000000000000000000000001 8
1Y
b00000000000101011000010110010011 \
b00001100 ]
#9
0Y
#10
0&
1'
b00000000000000000000000000000000 (
b00000000000000000000000000010000 )
b00000 +
b01010 ,
b111 -
b00000000000001011010010100000011 .
b000000000000 /
b00000000000000000000000000010100 0
b00000000000000000000000000000001 1
b00000000000000000000000000000000 2
b00000000000000000000000000000000 4
b00000000000000000000000011111101 5
b00000001 6
b00010000 7
b00000000000000000000000011111101 8
b00000000000000000000000000000001 D
1Y
b00000000000001011010010100000011 \
b00010000 ]
#11
0Y
#12
1#
0%
0'
b11111111111111111111111111111000 (
b00000000000000000000000000010100 )
b00110 +
b11001 ,
b11111110011001011001110011100011 .
b111111111100 /
b00000000000000000000000000001100 0
b00000000000000000000000011111111 2
b00000000000000000000000011111111 3
b00010100 7
b00000000000000000000000000000000 8
b00000000000000000000000011111101 C
1Y
b00000000000000000000000011111101 [
b11111110011001011001110011100011 \
b00010100 ]
#13
0Y
#14
0#
1$
1%
1&
b00000000000000000000000000000001 (
b00000000000000000000000000001100 )
b00001 +
b01011 ,
b000 -
b00000000000101011000010110010011 .
b000000000001 /
b00000000000000000000000000010000 0
b00000000000000000000000000000001 2
b00000000000000000000000000000000 3
b00000000000000000000000000000010 4
b00001100 7
b00000000000000000000000000000010 8
1Y
b00000000000101011000010110010011 \
b00001100 ]
#15
0Y
#16
0$
0&
1'
b00000000000000000000000000000000 (
b00000000000000000000000000010000 )
b00000 +
b01010 ,
b111 -
b00000000000001011010010100000011 .
b000000000000 /
b00000000000000000000000000010100 0
b00000000000000000000000000000010 1
b00000000000000000000000000000000 2
b00000000000000000000000000000000 4
b00000010 6
b00010000 7
b00000000000000000000000011111101 8
b00000000000000000000000000000010 D
1Y
b00000000000001011010010100000011 \
b00010000 ]
#17
0Y
#18
1#
0%
0'
b11111111111111111111111111111000 (
b00000000000000000000000000010100 )
b00110 +
b11001 ,
b11111110011001011001110011100011 .
b111111111100 /
b00000000000000000000000000001100 0
b00000000000000000000000011111111 2
b00000000000000000000000011111111 3
b00010100 7
b00000000000000000000000000000000 8
1Y
b11111110011001011001110011100011 \
b00010100 ]
#19
0Y
#20
0#
1%
1&
b00000000000000000000000000000001 (
b00000000000000000000000000001100 )
b00001 +
b01011 ,
b000 -
b00000000000101011000010110010011 .
b000000000001 /
b00000000000000000000000000010000 0
b00000000000000000000000000000001 2
b00000000000000000000000000000000 3
b00000000000000000000000000000011 4
b00001100 7
b00000000000000000000000000000011 8
1Y
b00000000000101011000010110010011 \
b00001100 ]
#21
0Y
#22
0&
1'
b00000000000000000000000000000000 (
b00000000000000000000000000010000 )
b00000 +
b01010 ,
b111 -
b00000000000001011010010100000011 .
b000000000000 /
b00000000000000000000000000010100 0
b00000000000000000000000000000011 1
b00000000000000000000000000000000 2
b00000000000000000000000000000000 4
b00000011 6
b00010000 7
b00000000000000000000000011111101 8
b00000000000000000000000000000011 D
1Y
b00000000000001011010010100000011 \
b00010000 ]
#23
0Y
#24
1#
0%
0'
b11111111111111111111111111111000 (
b00000000000000000000000000010100 )
b00110 +
b11001 ,
b11111110011001011001110011100011 .
b111111111100 /
b00000000000000000000000000001100 0
b00000000000000000000000011111111 2
b00000000000000000000000011111111 3
b00010100 7
b00000000000000000000000000000000 8
1Y
b11111110011001011001110011100011 \
b00010100 ]
#25
0Y
#26
0#
1%
1&
b00000000000000000000000000000001 (
b00000000000000000000000000001100 )
b00001 +
b01011 ,
b000 -
b00000000000101011000010110010011 .
b000000000001 /
b00000000000000000000000000010000 0
b00000000000000000000000000000001 2
b00000000000000000000000000000000 3
b00000000000000000000000000000100 4
b00001100 7
b00000000000000000000000000000100 8
1Y
b00000000000101011000010110010011 \
b00001100 ]
#27
0Y
#28
0&
1'
b00000000000000000000000000000000 (
b00000000000000000000000000010000 )
b00000 +
b01010 ,
b111 -
b00000000000001011010010100000011 .
b000000000000 /
b00000000000000000000000000010100 0
b00000000000000000000000000000100 1
b00000000000000000000000000000000 2
b00000000000000000000000000000000 4
b00000100 6
b00010000 7
b00000000000000000000000011111101 8
b00000000000000000000000000000100 D
1Y
b00000000000001011010010100000011 \
b00010000 ]
#29
0Y
#30
1#
0%
0'
b11111111111111111111111111111000 (
b00000000000000000000000000010100 )
b00110 +
b11001 ,
b11111110011001011001110011100011 .
b111111111100 /
b00000000000000000000000000001100 0
b00000000000000000000000011111111 2
b00000000000000000000000011111111 3
b00010100 7
b00000000000000000000000000000000 8
1Y
b11111110011001011001110011100011 \
b00010100 ]
#31
0Y
#32
0#
1%
1&
b00000000000000000000000000000001 (
b00000000000000000000000000001100 )
b00001 +
b01011 ,
b000 -
b00000000000101011000010110010011 .
b000000000001 /
b00000000000000000000000000010000 0
b00000000000000000000000000000001 2
b00000000000000000000000000000000 3
b00000000000000000000000000000101 4
b00001100 7
b00000000000000000000000000000101 8
1Y
b00000000000101011000010110010011 \
b00001100 ]
#33
0Y
#34
0&
1'
b00000000000000000000000000000000 (
b00000000000000000000000000010000 )
b00000 +
b01010 ,
b111 -
b00000000000001011010010100000011 .
b000000000000 /
b00000000000000000000000000010100 0
b00000000000000000000000000000101 1
b00000000000000000000000000000000 2
b00000000000000000000000000000000 4
b00000101 6
b00010000 7
b00000000000000000000000011111101 8
b00000000000000000000000000000101 D
1Y
b00000000000001011010010100000011 \
b00010000 ]
#35
0Y
#36
1#
0%
0'
b11111111111111111111111111111000 (
b00000000000000000000000000010100 )
b00110 +
b11001 ,
b11111110011001011001110011100011 .
b111111111100 /
b00000000000000000000000000001100 0
b00000000000000000000000011111111 2
b00000000000000000000000011111111 3
b00010100 7
b00000000000000000000000000000000 8
1Y
b11111110011001011001110011100011 \
b00010100 ]
#37
0Y
#38
0#
1%
1&
b00000000000000000000000000000001 (
b00000000000000000000000000001100 )
b00001 +
b01011 ,
b000 -
b00000000000101011000010110010011 .
b000000000001 /
b00000000000000000000000000010000 0
b00000000000000000000000000000001 2
b00000000000000000000000000000000 3
b00000000000000000000000000000110 4
b00001100 7
b00000000000000000000000000000110 8
1Y
b00000000000101011000010110010011 \
b00001100 ]
#39
0Y
#40
0&
1'
b00000000000000000000000000000000 (
b00000000000000000000000000010000 )
b00000 +
b01010 ,
b111 -
b00000000000001011010010100000011 .
b000000000000 /
b00000000000000000000000000010100 0
b00000000000000000000000000000110 1
b00000000000000000000000000000000 2
b00000000000000000000000000000000 4
b00000000000000000000000011111100 5
b00000110 6
b00010000 7
b00000000000000000000000011111100 8
b00000000000000000000000000000110 D
1Y
b00000000000001011010010100000011 \
b00010000 ]
#41
0Y
#42
1#
0%
0'
b11111111111111111111111111111000 (
b00000000000000000000000000010100 )
b00110 +
b11001 ,
b11111110011001011001110011100011 .
b111111111100 /
b00000000000000000000000000001100 0
b00000000000000000000000011111111 2
b00000000000000000000000011111111 3
b00010100 7
b00000000000000000000000000000000 8
b00000000000000000000000011111100 C
1Y
b00000000000000000000000011111100 [
b11111110011001011001110011100011 \
b00010100 ]
#43
0Y
#44
0#
1%
1&
b00000000000000000000000000000001 (
b00000000000000000000000000001100 )
b00001 +
b01011 ,
b000 -
b00000000000101011000010110010011 .
b000000000001 /
b00000000000000000000000000010000 0
b00000000000000000000000000000001 2
b00000000000000000000000000000000 3
b00000000000000000000000000000111 4
b00001100 7
b00000000000000000000000000000111 8
1Y
b00000000000101011000010110010011 \
b00001100 ]
#45
0Y
#46
0&
1'
b00000000000000000000000000000000 (
b00000000000000000000000000010000 )
b00000 +
b01010 ,
b111 -
b00000000000001011010010100000011 .
b000000000000 /
b00000000000000000000000000010100 0
b00000000000000000000000000000111 1
b00000000000000000000000000000000 2
b00000000000000000000000000000000 4
b00000111 6
b00010000 7
b00000000000000000000000011111100 8
b00000000000000000000000000000111 D
1Y
b00000000000001011010010100000011 \
b00010000 ]
#47
0Y
#48
1#
0%
0'
b11111111111111111111111111111000 (
b00000000000000000000000000010100 )
b00110 +
b11001 ,
b11111110011001011001110011100011 .
b111111111100 /
b00000000000000000000000000001100 0
b00000000000000000000000011111111 2
b00000000000000000000000011111111 3
b00010100 7
b00000000000000000000000000000000 8
1Y
b11111110011001011001110011100011 \
b00010100 ]
#49
0Y
#50
0#
1%
1&
b00000000000000000000000000000001 (
b00000000000000000000000000001100 )
b00001 +
b01011 ,
b000 -
b00000000000101011000010110010011 .
b000000000001 /
b00000000000000000000000000010000 0
b00000000000000000000000000000001 2
b00000000000000000000000000000000 3
b00000000000000000000000000001000 4
b00001100 7
b00000000000000000000000000001000 8
1Y
b00000000000101011000010110010011 \
b00001100 ]
#51
0Y
#52
0&
1'
b00000000000000000000000000000000 (
b00000000000000000000000000010000 )
b00000 +
b01010 ,
b111 -
b00000000000001011010010100000011 .
b000000000000 /
b00000000000000000000000000010100 0
b00000000000000000000000000001000 1
b00000000000000000000000000000000 2
b00000000000000000000000000000000 4
b00000000000000000000000011111011 5
b00001000 6
b00010000 7
b00000000000000000000000011111011 8
b00000000000000000000000000001000 D
1Y
b00000000000001011010010100000011 \
b00010000 ]
#53
0Y
#54
1#
0%
0'
b11111111111111111111111111111000 (
b00000000000000000000000000010100 )
b00110 +
b11001 ,
b11111110011001011001110011100011 .
b111111111100 /
b00000000000000000000000000001100 0
b00000000000000000000000011111111 2
b00000000000000000000000011111111 3
b00010100 7
b00000000000000000000000000000000 8
b00000000000000000000000011111011 C
1Y
b00000000000000000000000011111011 [
b11111110011001011001110011100011 \
b00010100 ]
#55
0Y
#56
0#
1%
1&
b00000000000000000000000000000001 (
b00000000000000000000000000001100 )
b00001 +
b01011 ,
b000 -
b00000000000101011000010110010011 .
b000000000001 /
b00000000000000000000000000010000 0
b00000000000000000000000000000001 2
b00000000000000000000000000000000 3
b00000000000000000000000000001001 4
b00001100 7
b00000000000000000000000000001001 8
1Y
b00000000000101011000010110010011 \
b00001100 ]
#57
0Y
#58
0&
1'
b00000000000000000000000000000000 (
b00000000000000000000000000010000 )
b00000 +
b01010 ,
b111 -
b00000000000001011010010100000011 .
b000000000000 /
b00000000000000000000000000010100 0
b00000000000000000000000000001001 1
b00000000000000000000000000000000 2
b00000000000000000000000000000000 4
b00000000000000000000000011111010 5
b00001001 6
b00010000 7
b00000000000000000000000011111010 8
b00000000000000000000000000001001 D
1Y
b00000000000001011010010100000011 \
b00010000 ]
#59
0Y
#60
1#
0%
0'
b11111111111111111111111111111000 (
b00000000000000000000000000010100 )
b00110 +
b11001 ,
b11111110011001011001110011100011 .
b111111111100 /
b00000000000000000000000000001100 0
b00000000000000000000000011111111 2
b00000000000000000000000011111111 3
b00010100 7
b00000000000000000000000000000000 8
b00000000000000000000000011111010 C
1Y
b00000000000000000000000011111010 [
b11111110011001011001110011100011 \
b00010100 ]
#61
0Y
#62
0#
1%
1&
b00000000000000000000000000000001 (
b00000000000000000000000000001100 )
b00001 +
b01011 ,
b000 -
b00000000000101011000010110010011 .
b000000000001 /
b00000000000000000000000000010000 0
b00000000000000000000000000000001 2
b00000000000000000000000000000000 3
b00000000000000000000000000001010 4
b00001100 7
b00000000000000000000000000001010 8
1Y
b00000000000101011000010110010011 \
b00001100 ]
#63
0Y
#64
0&
1'
b00000000000000000000000000000000 (
b00000000000000000000000000010000 )
b00000 +
b01010 ,
b111 -
b00000000000001011010010100000011 .
b000000000000 /
b00000000000000000000000000010100 0
b00000000000000000000000000001010 1
b00000000000000000000000000000000 2
b00000000000000000000000000000000 4
b00001010 6
b00010000 7
b00000000000000000000000011111010 8
b00000000000000000000000000001010 D
1Y
b00000000000001011010010100000011 \
b00010000 ]
#65
0Y
#66
1#
0%
0'
b11111111111111111111111111111000 (
b00000000000000000000000000010100 )
b00110 +
b11001 ,
b11111110011001011001110011100011 .
b111111111100 /
b00000000000000000000000000001100 0
b00000000000000000000000011111111 2
b00000000000000000000000011111111 3
b00010100 7
b00000000000000000000000000000000 8
1Y
b11111110011001011001110011100011 \
b00010100 ]
#67
0Y
#68
0#
1%
1&
b00000000000000000000000000000001 (
b00000000000000000000000000001100 )
b00001 +
b01011 ,
b000 -
b00000000000101011000010110010011 .
b000000000001 /
b00000000000000000000000000010000 0
b00000000000000000000000000000001 2
b00000000000000000000000000000000 3
b00000000000000000000000000001011 4
b00001100 7
b00000000000000000000000000001011 8
1Y
b00000000000101011000010110010011 \
b00001100 ]
#69
0Y
#70
0&
1'
b00000000000000000000000000000000 (
b00000000000000000000000000010000 )
b00000 +
b01010 ,
b111 -
b00000000000001011010010100000011 .
b000000000000 /
b00000000000000000000000000010100 0
b00000000000000000000000000001011 1
b00000000000000000000000000000000 2
b00000000000000000000000000000000 4
b00000000000000000000000011111001 5
b00001011 6
b00010000 7
b00000000000000000000000011111001 8
b00000000000000000000000000001011 D
1Y
b00000000000001011010010100000011 \
b00010000 ]
#71
0Y
#72
1#
0%
0'
b11111111111111111111111111111000 (
b00000000000000000000000000010100 )
b00110 +
b11001 ,
b11111110011001011001110011100011 .
b111111111100 /
b00000000000000000000000000001100 0
b00000000000000000000000011111111 2
b00000000000000000000000011111111 3
b00010100 7
b00000000000000000000000000000000 8
b00000000000000000000000011111001 C
1Y
b00000000000000000000000011111001 [
b11111110011001011001110011100011 \
b00010100 ]
#73
0Y
#74
0#
1%
1&
b00000000000000000000000000000001 (
b00000000000000000000000000001100 )
b00001 +
b01011 ,
b000 -
b00000000000101011000010110010011 .
b000000000001 /
b00000000000000000000000000010000 0
b00000000000000000000000000000001 2
b00000000000000000000000000000000 3
b00000000000000000000000000001100 4
b00001100 7
b00000000000000000000000000001100 8
1Y
b00000000000101011000010110010011 \
b00001100 ]
#75
0Y
#76
0&
1'
b00000000000000000000000000000000 (
b00000000000000000000000000010000 )
b00000 +
b01010 ,
b111 -
b00000000000001011010010100000011 .
b000000000000 /
b00000000000000000000000000010100 0
b00000000000000000000000000001100 1
b00000000000000000000000000000000 2
b00000000000000000000000000000000 4
b00000000000000000000000011111000 5
b00001100 6
b00010000 7
b00000000000000000000000011111000 8
b00000000000000000000000000001100 D
1Y
b00000000000001011010010100000011 \
b00010000 ]
#77
0Y
#78
1#
0%
0'
b11111111111111111111111111111000 (
b00000000000000000000000000010100 )
b00110 +
b11001 ,
b11111110011001011001110011100011 .
b111111111100 /
b00000000000000000000000000001100 0
b00000000000000000000000011111111 2
b00000000000000000000000011111111 3
b00010100 7
b00000000000000000000000000000000 8
b00000000000000000000000011111000 C
1Y
b00000000000000000000000011111000 [
b11111110011001011001110011100011 \
b00010100 ]
#79
0Y
#80
0#
1%
1&
b00000000000000000000000000000001 (
b00000000000000000000000000001100 )
b00001 +
b01011 ,
b000 -
b00000000000101011000010110010011 .
b000000000001 /
b00000000000000000000000000010000 0
b00000000000000000000000000000001 2
b00000000000000000000000000000000 3
b00000000000000000000000000001101 4
b00001100 7
b00000000000000000000000000001101 8
1Y
b00000000000101011000010110010011 \
b00001100 ]
#81
0Y
#82
0&
1'
b00000000000000000000000000000000 (
b00000000000000000000000000010000 )
b00000 +
b01010 ,
b111 -
b00000000000001011010010100000011 .
b000000000000 /
b00000000000000000000000000010100 0
b00000000000000000000000000001101 1
b00000000000000000000000000000000 2
b00000000000000000000000000000000 4
b00000000000000000000000011110111 5
b00001101 6
b00010000 7
b00000000000000000000000011110111 8
b00000000000000000000000000001101 D
1Y
b00000000000001011010010100000011 \
b00010000 ]
#83
0Y
#84
1#
0%
0'
b11111111111111111111111111111000 (
b00000000000000000000000000010100 )
b00110 +
b11001 ,
b11111110011001011001110011100011 .
b111111111100 /
b00000000000000000000000000001100 0
b00000000000000000000000011111111 2
b00000000000000000000000011111111 3
b00010100 7
b00000000000000000000000000000000 8
b00000000000000000000000011110111 C
1Y
b00000000000000000000000011110111 [
b11111110011001011001110011100011 \
b00010100 ]
#85
0Y
#86
0#
1%
1&
b00000000000000000000000000000001 (
b00000000000000000000000000001100 )
b00001 +
b01011 ,
b000 -
b00000000000101011000010110010011 .
b000000000001 /
b00000000000000000000000000010000 0
b00000000000000000000000000000001 2
b00000000000000000000000000000000 3
b00000000000000000000000000001110 4
b00001100 7
b00000000000000000000000000001110 8
1Y
b00000000000101011000010110010011 \
b00001100 ]
#87
0Y
#88
0&
1'
b00000000000000000000000000000000 (
b00000000000000000000000000010000 )
b00000 +
b01010 ,
b111 -
b00000000000001011010010100000011 .
b000000000000 /
b00000000000000000000000000010100 0
b00000000000000000000000000001110 1
b00000000000000000000000000000000 2
b00000000000000000000000000000000 4
b00000000000000000000000011110110 5
b00001110 6
b00010000 7
b00000000000000000000000011110110 8
b00000000000000000000000000001110 D
1Y
b00000000000001011010010100000011 \
b00010000 ]
#89
0Y
#90
1#
0%
0'
b11111111111111111111111111111000 (
b00000000000000000000000000010100 )
b00110 +
b11001 ,
b11111110011001011001110011100011 .
b111111111100 /
b00000000000000000000000000001100 0
b00000000000000000000000011111111 2
b00000000000000000000000011111111 3
b00010100 7
b00000000000000000000000000000000 8
b00000000000000000000000011110110 C
1Y
b00000000000000000000000011110110 [
b11111110011001011001110011100011 \
b00010100 ]
#91
0Y
#92
0#
1%
1&
b00000000000000000000000000000001 (
b00000000000000000000000000001100 )
b00001 +
b01011 ,
b000 -
b00000000000101011000010110010011 .
b000000000001 /
b00000000000000000000000000010000 0
b00000000000000000000000000000001 2
b00000000000000000000000000000000 3
b00000000000000000000000000001111 4
b00001100 7
b00000000000000000000000000001111 8
1Y
b00000000000101011000010110010011 \
b00001100 ]
#93
0Y
#94
0&
1'
b00000000000000000000000000000000 (
b00000000000000000000000000010000 )
b00000 +
b01010 ,
b111 -
b00000000000001011010010100000011 .
b000000000000 /
b00000000000000000000000000010100 0
b00000000000000000000000000001111 1
b00000000000000000000000000000000 2
b00000000000000000000000000000000 4
b00000000000000000000000011110101 5
b00001111 6
b00010000 7
b00000000000000000000000011110101 8
b00000000000000000000000000001111 D
1Y
b00000000000001011010010100000011 \
b00010000 ]
#95
0Y
#96
1#
0%
0'
b11111111111111111111111111111000 (
b00000000000000000000000000010100 )
b00110 +
b11001 ,
b11111110011001011001110011100011 .
b111111111100 /
b00000000000000000000000000001100 0
b00000000000000000000000011111111 2
b00000000000000000000000011111111 3
b00010100 7
b00000000000000000000000000000000 8
b00000000000000000000000011110101 C
1Y
b00000000000000000000000011110101 [
b11111110011001011001110011100011 \
b00010100 ]
#97
0Y
#98
0#
1%
1&
b00000000000000000000000000000001 (
b00000000000000000000000000001100 )
b00001 +
b01011 ,
b000 -
b00000000000101011000010110010011 .
b000000000001 /
b00000000000000000000000000010000 0
b00000000000000000000000000000001 2
b00000000000000000000000000000000 3
b00000000000000000000000000010000 4
b00001100 7
b00000000000000000000000000010000 8
1Y
b00000000000101011000010110010011 \
b00001100 ]
#99
0Y
#100
0&
1'
b00000000000000000000000000000000 (
b00000000000000000000000000010000 )
b00000 +
b01010 ,
b111 -
b00000000000001011010010100000011 .
b000000000000 /
b00000000000000000000000000010100 0
b00000000000000000000000000010000 1
b00000000000000000000000000000000 2
b00000000000000000000000000000000 4
b00000000000000000000000011110100 5
b00010000 6
b00010000 7
b00000000000000000000000011110100 8
b00000000000000000000000000010000 D
1Y
b00000000000001011010010100000011 \
b00010000 ]
#101
0Y
#102
1#
0%
0'
b11111111111111111111111111111000 (
b00000000000000000000000000010100 )
b00110 +
b11001 ,
b11111110011001011001110011100011 .
b111111111100 /
b00000000000000000000000000001100 0
b00000000000000000000000011111111 2
b00000000000000000000000011111111 3
b00010100 7
b00000000000000000000000000000000 8
b00000000000000000000000011110100 C
1Y
b00000000000000000000000011110100 [
b11111110011001011001110011100011 \
b00010100 ]
#103
0Y
#104
0#
1%
1&
b00000000000000000000000000000001 (
b00000000000000000000000000001100 )
b00001 +
b01011 ,
b000 -
b00000000000101011000010110010011 .
b000000000001 /
b00000000000000000000000000010000 0
b00000000000000000000000000000001 2
b00000000000000000000000000000000 3
b00000000000000000000000000010001 4
b00001100 7
b00000000000000000000000000010001 8
1Y
b00000000000101011000010110010011 \
b00001100 ]
#105
0Y
#106
0&
1'
b00000000000000000000000000000000 (
b00000000000000000000000000010000 )
b00000 +
b01010 ,
b111 -
b00000000000001011010010100000011 .
b000000000000 /
b00000000000000000000000000010100 0
b00000000000000000000000000010001 1
b00000000000000000000000000000000 2
b00000000000000000000000000000000 4
b00000000000000000000000011110011 5
b00010001 6
b00010000 7
b00000000000000000000000011110011 8
b00000000000000000000000000010001 D
1Y
b00000000000001011010010100000011 \
b00010000 ]
#107
0Y
#108
1#
0%
0'
b11111111111111111111111111111000 (
b00000000000000000000000000010100 )
b00110 +
b11001 ,
b11111110011001011001110011100011 .
b111111111100 /
b00000000000000000000000000001100 0
b00000000000000000000000011111111 2
b00000000000000000000000011111111 3
b00010100 7
b00000000000000000000000000000000 8
b00000000000000000000000011110011 C
1Y
b00000000000000000000000011110011 [
b11111110011001011001110011100011 \
b00010100 ]
#109
0Y
