risc_v.vcd
$version Generated by VerilatedVcd $end
$date Tue Nov 29 23:45:49 2022 $end
$timescale 1ps $end

 $scope module TOP $end
  $var wire 32 \ a0 [31:0] $end
  $var wire  1 Z clk $end
  $var wire 32 ] instruction [31:0] $end
  $var wire  8 ^ pc_addr [7:0] $end
  $var wire  1 [ rst $end
  $scope module risc_v $end
   $var wire 32 _ ADDRESS_WIDTH [31:0] $end
   $var wire  3 . ALUctrl [2:0] $end
   $var wire 32 2 ALUop1 [31:0] $end
   $var wire 32 3 ALUop2 [31:0] $end
   $var wire 32 5 ALUout [31:0] $end
   $var wire  1 & ALUsrc $end
   $var wire 32 _ DATA_WIDTH [31:0] $end
   $var wire  1 $ EQ $end
   $var wire 32 ) ImmOp [31:0] $end
   $var wire  2 0 ImmSrc [1:0] $end
   $var wire  1 ' MEMWrite $end
   $var wire 32 6 MEMdata [31:0] $end
   $var wire  1 ( MEMsrc $end
   $var wire  1 # PCsrc $end
   $var wire  1 % RegWrite $end
   $var wire 32 \ a0 [31:0] $end
   $var wire  1 Z clk $end
   $var wire 32 / instr [31:0] $end
   $var wire 32 ] instruction [31:0] $end
   $var wire 32 1 next_PC [31:0] $end
   $var wire 32 * pc [31:0] $end
   $var wire  8 ^ pc_addr [7:0] $end
   $var wire  5 - rd [4:0] $end
   $var wire 32 4 regOp2 [31:0] $end
   $var wire  5 + rs1 [4:0] $end
   $var wire  5 , rs2 [4:0] $end
   $var wire  1 [ rst $end
   $scope module alu $end
    $var wire  3 . ALUctrl [2:0] $end
    $var wire 32 2 ALUop1 [31:0] $end
    $var wire 32 3 ALUop2 [31:0] $end
    $var wire 32 5 ALUout [31:0] $end
    $var wire 32 ` CONTROL_WIDTH [31:0] $end
    $var wire  1 $ EQ $end
    $var wire 32 _ INPUT_WIDTH [31:0] $end
   $upscope $end
   $scope module alusrc $end
    $var wire 32 3 ALUop2 [31:0] $end
    $var wire  1 & ALUsrc $end
    $var wire 32 ) ImmOp [31:0] $end
    $var wire 32 _ WIDTH [31:0] $end
    $var wire 32 4 regOp2 [31:0] $end
   $upscope $end
   $scope module data_mem $end
    $var wire  8 7 A [7:0] $end
    $var wire 32 a ADDRESS_WIDTH [31:0] $end
    $var wire 32 _ DATA_WIDTH [31:0] $end
    $var wire 32 6 RD [31:0] $end
    $var wire 32 3 WD [31:0] $end
    $var wire  1 ' WE $end
    $var wire  1 Z clk $end
   $upscope $end
   $scope module my_control_unit $end
    $var wire  3 . ALUctrl [2:0] $end
    $var wire  1 & ALUsrc $end
    $var wire 32 _ DATA_WIDTH [31:0] $end
    $var wire  1 $ EQ $end
    $var wire  2 0 ImmSrc [1:0] $end
    $var wire  1 ' MEMWrite $end
    $var wire  1 ( MEMsrc $end
    $var wire  1 # PCsrc $end
    $var wire  1 % RegWrite $end
    $var wire 32 / instr [31:0] $end
   $upscope $end
   $scope module my_instr_mem $end
    $var wire 32 a ADDRESS_WIDTH [31:0] $end
    $var wire 32 _ DATA_WIDTH [31:0] $end
    $var wire 32 / instr [31:0] $end
    $var wire  8 8 pc [7:0] $end
   $upscope $end
   $scope module my_sign_extend $end
    $var wire 32 _ DATA_WIDTH [31:0] $end
    $var wire 32 ) ImmOp [31:0] $end
    $var wire  2 0 ImmSrc [1:0] $end
    $var wire 32 / instr [31:0] $end
   $upscope $end
   $scope module pcReg $end
    $var wire 32 _ WIDTH [31:0] $end
    $var wire  1 Z clk $end
    $var wire 32 1 next_PC [31:0] $end
    $var wire 32 * pc [31:0] $end
    $var wire  1 [ rst $end
   $upscope $end
   $scope module pc_mux $end
    $var wire 32 ) ImmOp [31:0] $end
    $var wire  1 # PCsrc $end
    $var wire 32 _ WIDTH [31:0] $end
    $var wire 32 1 next_PC [31:0] $end
    $var wire 32 * pc [31:0] $end
   $upscope $end
   $scope module reg_file $end
    $var wire  5 + AD1 [4:0] $end
    $var wire  5 , AD2 [4:0] $end
    $var wire  5 - AD3 [4:0] $end
    $var wire 32 b ADDRESS_WIDTH [31:0] $end
    $var wire 32 _ DATA_WIDTH [31:0] $end
    $var wire 32 2 RD1 [31:0] $end
    $var wire 32 4 RD2 [31:0] $end
    $var wire 32 9 WD3 [31:0] $end
    $var wire  1 % WE3 $end
    $var wire 32 \ a0 [31:0] $end
    $var wire  1 Z clk $end
    $var wire 32 : regfile[0] [31:0] $end
    $var wire 32 D regfile[10] [31:0] $end
    $var wire 32 E regfile[11] [31:0] $end
    $var wire 32 F regfile[12] [31:0] $end
    $var wire 32 G regfile[13] [31:0] $end
    $var wire 32 H regfile[14] [31:0] $end
    $var wire 32 I regfile[15] [31:0] $end
    $var wire 32 J regfile[16] [31:0] $end
    $var wire 32 K regfile[17] [31:0] $end
    $var wire 32 L regfile[18] [31:0] $end
    $var wire 32 M regfile[19] [31:0] $end
    $var wire 32 ; regfile[1] [31:0] $end
    $var wire 32 N regfile[20] [31:0] $end
    $var wire 32 O regfile[21] [31:0] $end
    $var wire 32 P regfile[22] [31:0] $end
    $var wire 32 Q regfile[23] [31:0] $end
    $var wire 32 R regfile[24] [31:0] $end
    $var wire 32 S regfile[25] [31:0] $end
    $var wire 32 T regfile[26] [31:0] $end
    $var wire 32 U regfile[27] [31:0] $end
    $var wire 32 V regfile[28] [31:0] $end
    $var wire 32 W regfile[29] [31:0] $end
    $var wire 32 < regfile[2] [31:0] $end
    $var wire 32 X regfile[30] [31:0] $end
    $var wire 32 Y regfile[31] [31:0] $end
    $var wire 32 = regfile[3] [31:0] $end
    $var wire 32 > regfile[4] [31:0] $end
    $var wire 32 ? regfile[5] [31:0] $end
    $var wire 32 @ regfile[6] [31:0] $end
    $var wire 32 A regfile[7] [31:0] $end
    $var wire 32 B regfile[8] [31:0] $end
    $var wire 32 C regfile[9] [31:0] $end
   $upscope $end
  $upscope $end
 $upscope $end
$enddefinitions $end


#0
0#
0$
0%
0&
0'
0(
b00000000000000000000000000000000 )
b00000000000000000000000000000000 *
b00000 +
b00000 ,
b00000 -
b000 .
b00000000000000000000000000000000 /
b00 0
b00000000000000000000000000000100 1
b00000000000000000000000000000000 2
b00000000000000000000000000000000 3
b00000000000000000000000000000000 4
b00000000000000000000000000000000 5
b00000000000000000000000000000000 6
b00000000 7
b00000000 8
b00000000000000000000000000000000 9
b00000000000000000000000000000000 :
b00000000000000000000000000000000 ;
b00000000000000000000000000000000 <
b00000000000000000000000000000000 =
b00000000000000000000000000000000 >
b00000000000000000000000000000000 ?
b00000000000000000000000000000000 @
b00000000000000000000000000000000 A
b00000000000000000000000000000000 B
b00000000000000000000000000000000 C
b00000000000000000000000000000000 D
b00000000000000000000000000000000 E
b00000000000000000000000000000000 F
b00000000000000000000000000000000 G
b00000000000000000000000000000000 H
b00000000000000000000000000000000 I
b00000000000000000000000000000000 J
b00000000000000000000000000000000 K
b00000000000000000000000000000000 L
b00000000000000000000000000000000 M
b00000000000000000000000000000000 N
b00000000000000000000000000000000 O
b00000000000000000000000000000000 P
b00000000000000000000000000000000 Q
b00000000000000000000000000000000 R
b00000000000000000000000000000000 S
b00000000000000000000000000000000 T
b00000000000000000000000000000000 U
b00000000000000000000000000000000 V
b00000000000000000000000000000000 W
b00000000000000000000000000000000 X
b00000000000000000000000000000000 Y
1Z
1[
b00000000000000000000000000000000 \
b00000000000000000000000000000000 ]
b00000000 ^
b00000000000000000000000000100000 _
b00000000000000000000000000000011 `
b00000000000000000000000000001000 a
b00000000000000000000000000000101 b
#1
1%
1&
b00000000000000000000000011111111 )
b11111 ,
b00110 -
b00001111111100000000001100010011 /
b00000000000000000000000011111111 3
b00000000000000000000000011111111 5
b00000000000000000000000011111110 6
b00000000000000000000000011111111 9
0Z
b00001111111100000000001100010011 ]
#2
b00000000000000000000000011111111 @
1Z
0[
#3
0Z
#4
1$
b00000000000000000000000000000000 )
b00000000000000000000000000000100 *
b00000 ,
b01010 -
b00000000000000000000010100010011 /
b00000000000000000000000000001000 1
b00000000000000000000000000000000 3
b00000000000000000000000000000000 5
b00000100 8
b00000000000000000000000000000000 9
1Z
b00000000000000000000010100010011 ]
b00000100 ^
#5
0Z
#6
b00000000000000000000000000001000 *
b01011 -
b00000000000000000000010110010011 /
b00000000000000000000000000001100 1
b00001000 8
1Z
b00000000000000000000010110010011 ]
b00001000 ^
#7
0Z
#8
0$
b00000000000000000000000000000001 )
b00000000000000000000000000001100 *
b01011 +
b00001 ,
b00000000000101011000010110010011 /
b00000000000000000000000000010000 1
b00000000000000000000000000000001 3
b00000000000000000000000000000001 5
b00001100 8
b00000000000000000000000000000001 9
1Z
b00000000000101011000010110010011 ]
b00001100 ^
#9
0Z
#10
1(
b00000000000000000000000000000000 )
b00000000000000000000000000010000 *
b00000 ,
b01010 -
b00000000000001011010010100000011 /
b00000000000000000000000000010100 1
b00000000000000000000000000000001 2
b00000000000000000000000000000000 3
b00000000000000000000000011111101 6
b00000001 7
b00010000 8
b00000000000000000000000011111101 9
b00000000000000000000000000000001 E
1Z
b00000000000001011010010100000011 ]
b00010000 ^
#11
0Z
#12
1#
0%
0&
0(
b11111111111111111111111111111000 )
b00000000000000000000000000010100 *
b00110 ,
b11001 -
b111 .
b11111110011001011001110011100011 /
b10 0
b00000000000000000000000000001100 1
b00000000000000000000000011111111 3
b00000000000000000000000011111111 4
b00000000000000000000000000000000 5
b00010100 8
b00000000000000000000000000000000 9
b00000000000000000000000011111101 D
1Z
b00000000000000000000000011111101 \
b11111110011001011001110011100011 ]
b00010100 ^
#13
0Z
#14
0#
1$
1%
1&
b00000000000000000000000000000001 )
b00000000000000000000000000001100 *
b00001 ,
b01011 -
b000 .
b00000000000101011000010110010011 /
b00 0
b00000000000000000000000000010000 1
b00000000000000000000000000000001 3
b00000000000000000000000000000000 4
b00000000000000000000000000000010 5
b00001100 8
b00000000000000000000000000000010 9
1Z
b00000000000101011000010110010011 ]
b00001100 ^
#15
0Z
#16
0$
1(
b00000000000000000000000000000000 )
b00000000000000000000000000010000 *
b00000 ,
b01010 -
b00000000000001011010010100000011 /
b00000000000000000000000000010100 1
b00000000000000000000000000000010 2
b00000000000000000000000000000000 3
b00000010 7
b00010000 8
b00000000000000000000000011111101 9
b00000000000000000000000000000010 E
1Z
b00000000000001011010010100000011 ]
b00010000 ^
#17
0Z
#18
1#
0%
0&
0(
b11111111111111111111111111111000 )
b00000000000000000000000000010100 *
b00110 ,
b11001 -
b111 .
b11111110011001011001110011100011 /
b10 0
b00000000000000000000000000001100 1
b00000000000000000000000011111111 3
b00000000000000000000000011111111 4
b00000000000000000000000000000000 5
b00010100 8
b00000000000000000000000000000000 9
1Z
b11111110011001011001110011100011 ]
b00010100 ^
#19
0Z
#20
0#
1%
1&
b00000000000000000000000000000001 )
b00000000000000000000000000001100 *
b00001 ,
b01011 -
b000 .
b00000000000101011000010110010011 /
b00 0
b00000000000000000000000000010000 1
b00000000000000000000000000000001 3
b00000000000000000000000000000000 4
b00000000000000000000000000000011 5
b00001100 8
b00000000000000000000000000000011 9
1Z
b00000000000101011000010110010011 ]
b00001100 ^
#21
0Z
#22
1(
b00000000000000000000000000000000 )
b00000000000000000000000000010000 *
b00000 ,
b01010 -
b00000000000001011010010100000011 /
b00000000000000000000000000010100 1
b00000000000000000000000000000011 2
b00000000000000000000000000000000 3
b00000011 7
b00010000 8
b00000000000000000000000011111101 9
b00000000000000000000000000000011 E
1Z
b00000000000001011010010100000011 ]
b00010000 ^
#23
0Z
#24
1#
0%
0&
0(
b11111111111111111111111111111000 )
b00000000000000000000000000010100 *
b00110 ,
b11001 -
b111 .
b11111110011001011001110011100011 /
b10 0
b00000000000000000000000000001100 1
b00000000000000000000000011111111 3
b00000000000000000000000011111111 4
b00000000000000000000000000000000 5
b00010100 8
b00000000000000000000000000000000 9
1Z
b11111110011001011001110011100011 ]
b00010100 ^
#25
0Z
#26
0#
1%
1&
b00000000000000000000000000000001 )
b00000000000000000000000000001100 *
b00001 ,
b01011 -
b000 .
b00000000000101011000010110010011 /
b00 0
b00000000000000000000000000010000 1
b00000000000000000000000000000001 3
b00000000000000000000000000000000 4
b00000000000000000000000000000100 5
b00001100 8
b00000000000000000000000000000100 9
1Z
b00000000000101011000010110010011 ]
b00001100 ^
#27
0Z
#28
1(
b00000000000000000000000000000000 )
b00000000000000000000000000010000 *
b00000 ,
b01010 -
b00000000000001011010010100000011 /
b00000000000000000000000000010100 1
b00000000000000000000000000000100 2
b00000000000000000000000000000000 3
b00000100 7
b00010000 8
b00000000000000000000000011111101 9
b00000000000000000000000000000100 E
1Z
b00000000000001011010010100000011 ]
b00010000 ^
#29
0Z
#30
1#
0%
0&
0(
b11111111111111111111111111111000 )
b00000000000000000000000000010100 *
b00110 ,
b11001 -
b111 .
b11111110011001011001110011100011 /
b10 0
b00000000000000000000000000001100 1
b00000000000000000000000011111111 3
b00000000000000000000000011111111 4
b00000000000000000000000000000000 5
b00010100 8
b00000000000000000000000000000000 9
1Z
b11111110011001011001110011100011 ]
b00010100 ^
#31
0Z
#32
0#
1%
1&
b00000000000000000000000000000001 )
b00000000000000000000000000001100 *
b00001 ,
b01011 -
b000 .
b00000000000101011000010110010011 /
b00 0
b00000000000000000000000000010000 1
b00000000000000000000000000000001 3
b00000000000000000000000000000000 4
b00000000000000000000000000000101 5
b00001100 8
b00000000000000000000000000000101 9
1Z
b00000000000101011000010110010011 ]
b00001100 ^
#33
0Z
#34
1(
b00000000000000000000000000000000 )
b00000000000000000000000000010000 *
b00000 ,
b01010 -
b00000000000001011010010100000011 /
b00000000000000000000000000010100 1
b00000000000000000000000000000101 2
b00000000000000000000000000000000 3
b00000101 7
b00010000 8
b00000000000000000000000011111101 9
b00000000000000000000000000000101 E
1Z
b00000000000001011010010100000011 ]
b00010000 ^
#35
0Z
#36
1#
0%
0&
0(
b11111111111111111111111111111000 )
b00000000000000000000000000010100 *
b00110 ,
b11001 -
b111 .
b11111110011001011001110011100011 /
b10 0
b00000000000000000000000000001100 1
b00000000000000000000000011111111 3
b00000000000000000000000011111111 4
b00000000000000000000000000000000 5
b00010100 8
b00000000000000000000000000000000 9
1Z
b11111110011001011001110011100011 ]
b00010100 ^
#37
0Z
#38
0#
1%
1&
b00000000000000000000000000000001 )
b00000000000000000000000000001100 *
b00001 ,
b01011 -
b000 .
b00000000000101011000010110010011 /
b00 0
b00000000000000000000000000010000 1
b00000000000000000000000000000001 3
b00000000000000000000000000000000 4
b00000000000000000000000000000110 5
b00001100 8
b00000000000000000000000000000110 9
1Z
b00000000000101011000010110010011 ]
b00001100 ^
#39
0Z
#40
1(
b00000000000000000000000000000000 )
b00000000000000000000000000010000 *
b00000 ,
b01010 -
b00000000000001011010010100000011 /
b00000000000000000000000000010100 1
b00000000000000000000000000000110 2
b00000000000000000000000000000000 3
b00000000000000000000000011111100 6
b00000110 7
b00010000 8
b00000000000000000000000011111100 9
b00000000000000000000000000000110 E
1Z
b00000000000001011010010100000011 ]
b00010000 ^
#41
0Z
#42
1#
0%
0&
0(
b11111111111111111111111111111000 )
b00000000000000000000000000010100 *
b00110 ,
b11001 -
b111 .
b11111110011001011001110011100011 /
b10 0
b00000000000000000000000000001100 1
b00000000000000000000000011111111 3
b00000000000000000000000011111111 4
b00000000000000000000000000000000 5
b00010100 8
b00000000000000000000000000000000 9
b00000000000000000000000011111100 D
1Z
b00000000000000000000000011111100 \
b11111110011001011001110011100011 ]
b00010100 ^
#43
0Z
#44
0#
1%
1&
b00000000000000000000000000000001 )
b00000000000000000000000000001100 *
b00001 ,
b01011 -
b000 .
b00000000000101011000010110010011 /
b00 0
b00000000000000000000000000010000 1
b00000000000000000000000000000001 3
b00000000000000000000000000000000 4
b00000000000000000000000000000111 5
b00001100 8
b00000000000000000000000000000111 9
1Z
b00000000000101011000010110010011 ]
b00001100 ^
#45
0Z
#46
1(
b00000000000000000000000000000000 )
b00000000000000000000000000010000 *
b00000 ,
b01010 -
b00000000000001011010010100000011 /
b00000000000000000000000000010100 1
b00000000000000000000000000000111 2
b00000000000000000000000000000000 3
b00000111 7
b00010000 8
b00000000000000000000000011111100 9
b00000000000000000000000000000111 E
1Z
b00000000000001011010010100000011 ]
b00010000 ^
#47
0Z
#48
1#
0%
0&
0(
b11111111111111111111111111111000 )
b00000000000000000000000000010100 *
b00110 ,
b11001 -
b111 .
b11111110011001011001110011100011 /
b10 0
b00000000000000000000000000001100 1
b00000000000000000000000011111111 3
b00000000000000000000000011111111 4
b00000000000000000000000000000000 5
b00010100 8
b00000000000000000000000000000000 9
1Z
b11111110011001011001110011100011 ]
b00010100 ^
#49
0Z
#50
0#
1%
1&
b00000000000000000000000000000001 )
b00000000000000000000000000001100 *
b00001 ,
b01011 -
b000 .
b00000000000101011000010110010011 /
b00 0
b00000000000000000000000000010000 1
b00000000000000000000000000000001 3
b00000000000000000000000000000000 4
b00000000000000000000000000001000 5
b00001100 8
b00000000000000000000000000001000 9
1Z
b00000000000101011000010110010011 ]
b00001100 ^
#51
0Z
#52
1(
b00000000000000000000000000000000 )
b00000000000000000000000000010000 *
b00000 ,
b01010 -
b00000000000001011010010100000011 /
b00000000000000000000000000010100 1
b00000000000000000000000000001000 2
b00000000000000000000000000000000 3
b00000000000000000000000011111011 6
b00001000 7
b00010000 8
b00000000000000000000000011111011 9
b00000000000000000000000000001000 E
1Z
b00000000000001011010010100000011 ]
b00010000 ^
#53
0Z
#54
1#
0%
0&
0(
b11111111111111111111111111111000 )
b00000000000000000000000000010100 *
b00110 ,
b11001 -
b111 .
b11111110011001011001110011100011 /
b10 0
b00000000000000000000000000001100 1
b00000000000000000000000011111111 3
b00000000000000000000000011111111 4
b00000000000000000000000000000000 5
b00010100 8
b00000000000000000000000000000000 9
b00000000000000000000000011111011 D
1Z
b00000000000000000000000011111011 \
b11111110011001011001110011100011 ]
b00010100 ^
#55
0Z
#56
0#
1%
1&
b00000000000000000000000000000001 )
b00000000000000000000000000001100 *
b00001 ,
b01011 -
b000 .
b00000000000101011000010110010011 /
b00 0
b00000000000000000000000000010000 1
b00000000000000000000000000000001 3
b00000000000000000000000000000000 4
b00000000000000000000000000001001 5
b00001100 8
b00000000000000000000000000001001 9
1Z
b00000000000101011000010110010011 ]
b00001100 ^
#57
0Z
#58
1(
b00000000000000000000000000000000 )
b00000000000000000000000000010000 *
b00000 ,
b01010 -
b00000000000001011010010100000011 /
b00000000000000000000000000010100 1
b00000000000000000000000000001001 2
b00000000000000000000000000000000 3
b00000000000000000000000011111010 6
b00001001 7
b00010000 8
b00000000000000000000000011111010 9
b00000000000000000000000000001001 E
1Z
b00000000000001011010010100000011 ]
b00010000 ^
#59
0Z
#60
1#
0%
0&
0(
b11111111111111111111111111111000 )
b00000000000000000000000000010100 *
b00110 ,
b11001 -
b111 .
b11111110011001011001110011100011 /
b10 0
b00000000000000000000000000001100 1
b00000000000000000000000011111111 3
b00000000000000000000000011111111 4
b00000000000000000000000000000000 5
b00010100 8
b00000000000000000000000000000000 9
b00000000000000000000000011111010 D
1Z
b00000000000000000000000011111010 \
b11111110011001011001110011100011 ]
b00010100 ^
#61
0Z
#62
0#
1%
1&
b00000000000000000000000000000001 )
b00000000000000000000000000001100 *
b00001 ,
b01011 -
b000 .
b00000000000101011000010110010011 /
b00 0
b00000000000000000000000000010000 1
b00000000000000000000000000000001 3
b00000000000000000000000000000000 4
b00000000000000000000000000001010 5
b00001100 8
b00000000000000000000000000001010 9
1Z
b00000000000101011000010110010011 ]
b00001100 ^
#63
0Z
#64
1(
b00000000000000000000000000000000 )
b00000000000000000000000000010000 *
b00000 ,
b01010 -
b00000000000001011010010100000011 /
b00000000000000000000000000010100 1
b00000000000000000000000000001010 2
b00000000000000000000000000000000 3
b00001010 7
b00010000 8
b00000000000000000000000011111010 9
b00000000000000000000000000001010 E
1Z
b00000000000001011010010100000011 ]
b00010000 ^
#65
0Z
#66
1#
0%
0&
0(
b11111111111111111111111111111000 )
b00000000000000000000000000010100 *
b00110 ,
b11001 -
b111 .
b11111110011001011001110011100011 /
b10 0
b00000000000000000000000000001100 1
b00000000000000000000000011111111 3
b00000000000000000000000011111111 4
b00000000000000000000000000000000 5
b00010100 8
b00000000000000000000000000000000 9
1Z
b11111110011001011001110011100011 ]
b00010100 ^
#67
0Z
#68
0#
1%
1&
b00000000000000000000000000000001 )
b00000000000000000000000000001100 *
b00001 ,
b01011 -
b000 .
b00000000000101011000010110010011 /
b00 0
b00000000000000000000000000010000 1
b00000000000000000000000000000001 3
b00000000000000000000000000000000 4
b00000000000000000000000000001011 5
b00001100 8
b00000000000000000000000000001011 9
1Z
b00000000000101011000010110010011 ]
b00001100 ^
#69
0Z
#70
1(
b00000000000000000000000000000000 )
b00000000000000000000000000010000 *
b00000 ,
b01010 -
b00000000000001011010010100000011 /
b00000000000000000000000000010100 1
b00000000000000000000000000001011 2
b00000000000000000000000000000000 3
b00000000000000000000000011111001 6
b00001011 7
b00010000 8
b00000000000000000000000011111001 9
b00000000000000000000000000001011 E
1Z
b00000000000001011010010100000011 ]
b00010000 ^
#71
0Z
#72
1#
0%
0&
0(
b11111111111111111111111111111000 )
b00000000000000000000000000010100 *
b00110 ,
b11001 -
b111 .
b11111110011001011001110011100011 /
b10 0
b00000000000000000000000000001100 1
b00000000000000000000000011111111 3
b00000000000000000000000011111111 4
b00000000000000000000000000000000 5
b00010100 8
b00000000000000000000000000000000 9
b00000000000000000000000011111001 D
1Z
b00000000000000000000000011111001 \
b11111110011001011001110011100011 ]
b00010100 ^
#73
0Z
#74
0#
1%
1&
b00000000000000000000000000000001 )
b00000000000000000000000000001100 *
b00001 ,
b01011 -
b000 .
b00000000000101011000010110010011 /
b00 0
b00000000000000000000000000010000 1
b00000000000000000000000000000001 3
b00000000000000000000000000000000 4
b00000000000000000000000000001100 5
b00001100 8
b00000000000000000000000000001100 9
1Z
b00000000000101011000010110010011 ]
b00001100 ^
#75
0Z
#76
1(
b00000000000000000000000000000000 )
b00000000000000000000000000010000 *
b00000 ,
b01010 -
b00000000000001011010010100000011 /
b00000000000000000000000000010100 1
b00000000000000000000000000001100 2
b00000000000000000000000000000000 3
b00000000000000000000000011111000 6
b00001100 7
b00010000 8
b00000000000000000000000011111000 9
b00000000000000000000000000001100 E
1Z
b00000000000001011010010100000011 ]
b00010000 ^
#77
0Z
#78
1#
0%
0&
0(
b11111111111111111111111111111000 )
b00000000000000000000000000010100 *
b00110 ,
b11001 -
b111 .
b11111110011001011001110011100011 /
b10 0
b00000000000000000000000000001100 1
b00000000000000000000000011111111 3
b00000000000000000000000011111111 4
b00000000000000000000000000000000 5
b00010100 8
b00000000000000000000000000000000 9
b00000000000000000000000011111000 D
1Z
b00000000000000000000000011111000 \
b11111110011001011001110011100011 ]
b00010100 ^
#79
0Z
#80
0#
1%
1&
b00000000000000000000000000000001 )
b00000000000000000000000000001100 *
b00001 ,
b01011 -
b000 .
b00000000000101011000010110010011 /
b00 0
b00000000000000000000000000010000 1
b00000000000000000000000000000001 3
b00000000000000000000000000000000 4
b00000000000000000000000000001101 5
b00001100 8
b00000000000000000000000000001101 9
1Z
b00000000000101011000010110010011 ]
b00001100 ^
#81
0Z
#82
1(
b00000000000000000000000000000000 )
b00000000000000000000000000010000 *
b00000 ,
b01010 -
b00000000000001011010010100000011 /
b00000000000000000000000000010100 1
b00000000000000000000000000001101 2
b00000000000000000000000000000000 3
b00000000000000000000000011110111 6
b00001101 7
b00010000 8
b00000000000000000000000011110111 9
b00000000000000000000000000001101 E
1Z
b00000000000001011010010100000011 ]
b00010000 ^
#83
0Z
#84
1#
0%
0&
0(
b11111111111111111111111111111000 )
b00000000000000000000000000010100 *
b00110 ,
b11001 -
b111 .
b11111110011001011001110011100011 /
b10 0
b00000000000000000000000000001100 1
b00000000000000000000000011111111 3
b00000000000000000000000011111111 4
b00000000000000000000000000000000 5
b00010100 8
b00000000000000000000000000000000 9
b00000000000000000000000011110111 D
1Z
b00000000000000000000000011110111 \
b11111110011001011001110011100011 ]
b00010100 ^
#85
0Z
#86
0#
1%
1&
b00000000000000000000000000000001 )
b00000000000000000000000000001100 *
b00001 ,
b01011 -
b000 .
b00000000000101011000010110010011 /
b00 0
b00000000000000000000000000010000 1
b00000000000000000000000000000001 3
b00000000000000000000000000000000 4
b00000000000000000000000000001110 5
b00001100 8
b00000000000000000000000000001110 9
1Z
b00000000000101011000010110010011 ]
b00001100 ^
#87
0Z
#88
1(
b00000000000000000000000000000000 )
b00000000000000000000000000010000 *
b00000 ,
b01010 -
b00000000000001011010010100000011 /
b00000000000000000000000000010100 1
b00000000000000000000000000001110 2
b00000000000000000000000000000000 3
b00000000000000000000000011110110 6
b00001110 7
b00010000 8
b00000000000000000000000011110110 9
b00000000000000000000000000001110 E
1Z
b00000000000001011010010100000011 ]
b00010000 ^
#89
0Z
#90
1#
0%
0&
0(
b11111111111111111111111111111000 )
b00000000000000000000000000010100 *
b00110 ,
b11001 -
b111 .
b11111110011001011001110011100011 /
b10 0
b00000000000000000000000000001100 1
b00000000000000000000000011111111 3
b00000000000000000000000011111111 4
b00000000000000000000000000000000 5
b00010100 8
b00000000000000000000000000000000 9
b00000000000000000000000011110110 D
1Z
b00000000000000000000000011110110 \
b11111110011001011001110011100011 ]
b00010100 ^
#91
0Z
#92
0#
1%
1&
b00000000000000000000000000000001 )
b00000000000000000000000000001100 *
b00001 ,
b01011 -
b000 .
b00000000000101011000010110010011 /
b00 0
b00000000000000000000000000010000 1
b00000000000000000000000000000001 3
b00000000000000000000000000000000 4
b00000000000000000000000000001111 5
b00001100 8
b00000000000000000000000000001111 9
1Z
b00000000000101011000010110010011 ]
b00001100 ^
#93
0Z
#94
1(
b00000000000000000000000000000000 )
b00000000000000000000000000010000 *
b00000 ,
b01010 -
b00000000000001011010010100000011 /
b00000000000000000000000000010100 1
b00000000000000000000000000001111 2
b00000000000000000000000000000000 3
b00000000000000000000000011110101 6
b00001111 7
b00010000 8
b00000000000000000000000011110101 9
b00000000000000000000000000001111 E
1Z
b00000000000001011010010100000011 ]
b00010000 ^
#95
0Z
#96
1#
0%
0&
0(
b11111111111111111111111111111000 )
b00000000000000000000000000010100 *
b00110 ,
b11001 -
b111 .
b11111110011001011001110011100011 /
b10 0
b00000000000000000000000000001100 1
b00000000000000000000000011111111 3
b00000000000000000000000011111111 4
b00000000000000000000000000000000 5
b00010100 8
b00000000000000000000000000000000 9
b00000000000000000000000011110101 D
1Z
b00000000000000000000000011110101 \
b11111110011001011001110011100011 ]
b00010100 ^
#97
0Z
#98
0#
1%
1&
b00000000000000000000000000000001 )
b00000000000000000000000000001100 *
b00001 ,
b01011 -
b000 .
b00000000000101011000010110010011 /
b00 0
b00000000000000000000000000010000 1
b00000000000000000000000000000001 3
b00000000000000000000000000000000 4
b00000000000000000000000000010000 5
b00001100 8
b00000000000000000000000000010000 9
1Z
b00000000000101011000010110010011 ]
b00001100 ^
#99
0Z
#100
1(
b00000000000000000000000000000000 )
b00000000000000000000000000010000 *
b00000 ,
b01010 -
b00000000000001011010010100000011 /
b00000000000000000000000000010100 1
b00000000000000000000000000010000 2
b00000000000000000000000000000000 3
b00000000000000000000000011110100 6
b00010000 7
b00010000 8
b00000000000000000000000011110100 9
b00000000000000000000000000010000 E
1Z
b00000000000001011010010100000011 ]
b00010000 ^
#101
0Z
#102
1#
0%
0&
0(
b11111111111111111111111111111000 )
b00000000000000000000000000010100 *
b00110 ,
b11001 -
b111 .
b11111110011001011001110011100011 /
b10 0
b00000000000000000000000000001100 1
b00000000000000000000000011111111 3
b00000000000000000000000011111111 4
b00000000000000000000000000000000 5
b00010100 8
b00000000000000000000000000000000 9
b00000000000000000000000011110100 D
1Z
b00000000000000000000000011110100 \
b11111110011001011001110011100011 ]
b00010100 ^
#103
0Z
#104
0#
1%
1&
b00000000000000000000000000000001 )
b00000000000000000000000000001100 *
b00001 ,
b01011 -
b000 .
b00000000000101011000010110010011 /
b00 0
b00000000000000000000000000010000 1
b00000000000000000000000000000001 3
b00000000000000000000000000000000 4
b00000000000000000000000000010001 5
b00001100 8
b00000000000000000000000000010001 9
1Z
b00000000000101011000010110010011 ]
b00001100 ^
#105
0Z
#106
1(
b00000000000000000000000000000000 )
b00000000000000000000000000010000 *
b00000 ,
b01010 -
b00000000000001011010010100000011 /
b00000000000000000000000000010100 1
b00000000000000000000000000010001 2
b00000000000000000000000000000000 3
b00000000000000000000000011110011 6
b00010001 7
b00010000 8
b00000000000000000000000011110011 9
b00000000000000000000000000010001 E
1Z
b00000000000001011010010100000011 ]
b00010000 ^
#107
0Z
#108
1#
0%
0&
0(
b11111111111111111111111111111000 )
b00000000000000000000000000010100 *
b00110 ,
b11001 -
b111 .
b11111110011001011001110011100011 /
b10 0
b00000000000000000000000000001100 1
b00000000000000000000000011111111 3
b00000000000000000000000011111111 4
b00000000000000000000000000000000 5
b00010100 8
b00000000000000000000000000000000 9
b00000000000000000000000011110011 D
1Z
b00000000000000000000000011110011 \
b11111110011001011001110011100011 ]
b00010100 ^
#109
0Z
#110
0#
1%
1&
b00000000000000000000000000000001 )
b00000000000000000000000000001100 *
b00001 ,
b01011 -
b000 .
b00000000000101011000010110010011 /
b00 0
b00000000000000000000000000010000 1
b00000000000000000000000000000001 3
b00000000000000000000000000000000 4
b00000000000000000000000000010010 5
b00001100 8
b00000000000000000000000000010010 9
1Z
b00000000000101011000010110010011 ]
b00001100 ^
#111
0Z
#112
1(
b00000000000000000000000000000000 )
b00000000000000000000000000010000 *
b00000 ,
b01010 -
b00000000000001011010010100000011 /
b00000000000000000000000000010100 1
b00000000000000000000000000010010 2
b00000000000000000000000000000000 3
b00000000000000000000000011110001 6
b00010010 7
b00010000 8
b00000000000000000000000011110001 9
b00000000000000000000000000010010 E
1Z
b00000000000001011010010100000011 ]
b00010000 ^
#113
0Z
