risc_v_counter/risc_v.vcd
$version Generated by VerilatedVcd $end
$date Thu Nov 24 10:04:33 2022 $end
$timescale 1ps $end

 $scope module TOP $end
  $var wire 32 V a0 [31:0] $end
  $var wire  1 T clk $end
  $var wire 32 W instruction [31:0] $end
  $var wire  8 X pc_addr [7:0] $end
  $var wire  1 U rst $end
  $scope module risc_v $end
   $var wire 32 Y ADDRESS_WIDTH [31:0] $end
   $var wire  3 + ALUctrl [2:0] $end
   $var wire 32 / ALUop1 [31:0] $end
   $var wire 32 0 ALUop2 [31:0] $end
   $var wire 32 2 ALUout [31:0] $end
   $var wire  1 % ALUsrc $end
   $var wire 32 Y DATA_WIDTH [31:0] $end
   $var wire  1 $ EQ $end
   $var wire 32 & ImmOp [31:0] $end
   $var wire 12 - ImmSrc [11:0] $end
   $var wire  1 # PCsrc $end
   $var wire  1 % RegWrite $end
   $var wire 32 V a0 [31:0] $end
   $var wire  1 T clk $end
   $var wire 32 , instr [31:0] $end
   $var wire 32 W instruction [31:0] $end
   $var wire 32 . next_PC [31:0] $end
   $var wire 32 ' pc [31:0] $end
   $var wire  8 X pc_addr [7:0] $end
   $var wire  5 * rd [4:0] $end
   $var wire 32 1 regOp2 [31:0] $end
   $var wire  5 ( rs1 [4:0] $end
   $var wire  5 ) rs2 [4:0] $end
   $var wire  1 U rst $end
   $scope module alu $end
    $var wire  3 + ALUctrl [2:0] $end
    $var wire 32 / ALUop1 [31:0] $end
    $var wire 32 0 ALUop2 [31:0] $end
    $var wire 32 2 ALUout [31:0] $end
    $var wire 32 Z CONTROL_WIDTH [31:0] $end
    $var wire  1 $ EQ $end
    $var wire 32 Y INPUT_WIDTH [31:0] $end
   $upscope $end
   $scope module alusrc $end
    $var wire 32 0 ALUop2 [31:0] $end
    $var wire  1 % ALUsrc $end
    $var wire 32 & ImmOp [31:0] $end
    $var wire 32 Y WIDTH [31:0] $end
    $var wire 32 1 regOp2 [31:0] $end
   $upscope $end
   $scope module my_control_unit $end
    $var wire  3 + ALUctrl [2:0] $end
    $var wire  1 % ALUsrc $end
    $var wire 32 Y DATA_WIDTH [31:0] $end
    $var wire  1 $ EQ $end
    $var wire 12 - ImmSrc [11:0] $end
    $var wire  1 # PCsrc $end
    $var wire  1 % RegWrite $end
    $var wire 32 , instr [31:0] $end
   $upscope $end
   $scope module my_instr_mem $end
    $var wire 32 [ ADDRESS_WIDTH [31:0] $end
    $var wire 32 Y DATA_WIDTH [31:0] $end
    $var wire 32 , instr [31:0] $end
    $var wire  8 3 pc [7:0] $end
   $upscope $end
   $scope module my_sign_extend $end
    $var wire 32 Y DATA_WIDTH [31:0] $end
    $var wire 32 \ IMM_WIDTH [31:0] $end
    $var wire 32 & ImmOp [31:0] $end
    $var wire 12 - ImmSrc [11:0] $end
    $var wire 32 , instr [31:0] $end
   $upscope $end
   $scope module pcReg $end
    $var wire 32 Y WIDTH [31:0] $end
    $var wire  1 T clk $end
    $var wire 32 . next_PC [31:0] $end
    $var wire 32 ' pc [31:0] $end
    $var wire  1 U rst $end
   $upscope $end
   $scope module pc_mux $end
    $var wire 32 & ImmOp [31:0] $end
    $var wire  1 # PCsrc $end
    $var wire 32 Y WIDTH [31:0] $end
    $var wire 32 . next_PC [31:0] $end
    $var wire 32 ' pc [31:0] $end
   $upscope $end
   $scope module reg_file $end
    $var wire  5 ( AD1 [4:0] $end
    $var wire  5 ) AD2 [4:0] $end
    $var wire  5 * AD3 [4:0] $end
    $var wire 32 ] ADDRESS_WIDTH [31:0] $end
    $var wire 32 Y DATA_WIDTH [31:0] $end
    $var wire 32 / RD1 [31:0] $end
    $var wire 32 1 RD2 [31:0] $end
    $var wire 32 2 WD3 [31:0] $end
    $var wire  1 % WE3 $end
    $var wire 32 V a0 [31:0] $end
    $var wire  1 T clk $end
    $var wire 32 4 regfile[0] [31:0] $end
    $var wire 32 > regfile[10] [31:0] $end
    $var wire 32 ? regfile[11] [31:0] $end
    $var wire 32 @ regfile[12] [31:0] $end
    $var wire 32 A regfile[13] [31:0] $end
    $var wire 32 B regfile[14] [31:0] $end
    $var wire 32 C regfile[15] [31:0] $end
    $var wire 32 D regfile[16] [31:0] $end
    $var wire 32 E regfile[17] [31:0] $end
    $var wire 32 F regfile[18] [31:0] $end
    $var wire 32 G regfile[19] [31:0] $end
    $var wire 32 5 regfile[1] [31:0] $end
    $var wire 32 H regfile[20] [31:0] $end
    $var wire 32 I regfile[21] [31:0] $end
    $var wire 32 J regfile[22] [31:0] $end
    $var wire 32 K regfile[23] [31:0] $end
    $var wire 32 L regfile[24] [31:0] $end
    $var wire 32 M regfile[25] [31:0] $end
    $var wire 32 N regfile[26] [31:0] $end
    $var wire 32 O regfile[27] [31:0] $end
    $var wire 32 P regfile[28] [31:0] $end
    $var wire 32 Q regfile[29] [31:0] $end
    $var wire 32 6 regfile[2] [31:0] $end
    $var wire 32 R regfile[30] [31:0] $end
    $var wire 32 S regfile[31] [31:0] $end
    $var wire 32 7 regfile[3] [31:0] $end
    $var wire 32 8 regfile[4] [31:0] $end
    $var wire 32 9 regfile[5] [31:0] $end
    $var wire 32 : regfile[6] [31:0] $end
    $var wire 32 ; regfile[7] [31:0] $end
    $var wire 32 < regfile[8] [31:0] $end
    $var wire 32 = regfile[9] [31:0] $end
   $upscope $end
  $upscope $end
 $upscope $end
$enddefinitions $end


#0
0#
0$
0%
b00000000000000000000000000000000 &
b00000000000000000000000000000000 '
b00000 (
b00000 )
b00000 *
b000 +
b00000000000000000000000000000000 ,
b000000000000 -
b00000000000000000000000000000100 .
b00000000000000000000000000000000 /
b00000000000000000000000000000000 0
b00000000000000000000000000000000 1
b00000000000000000000000000000000 2
b00000000 3
b00000000000000000000000000000000 4
b00000000000000000000000000000000 5
b00000000000000000000000000000000 6
b00000000000000000000000000000000 7
b00000000000000000000000000000000 8
b00000000000000000000000000000000 9
b00000000000000000000000000000000 :
b00000000000000000000000000000000 ;
b00000000000000000000000000000000 <
b00000000000000000000000000000000 =
b00000000000000000000000000000000 >
b00000000000000000000000000000000 ?
b00000000000000000000000000000000 @
b00000000000000000000000000000000 A
b00000000000000000000000000000000 B
b00000000000000000000000000000000 C
b00000000000000000000000000000000 D
b00000000000000000000000000000000 E
b00000000000000000000000000000000 F
b00000000000000000000000000000000 G
b00000000000000000000000000000000 H
b00000000000000000000000000000000 I
b00000000000000000000000000000000 J
b00000000000000000000000000000000 K
b00000000000000000000000000000000 L
b00000000000000000000000000000000 M
b00000000000000000000000000000000 N
b00000000000000000000000000000000 O
b00000000000000000000000000000000 P
b00000000000000000000000000000000 Q
b00000000000000000000000000000000 R
b00000000000000000000000000000000 S
1T
1U
b00000000000000000000000000000000 V
b00000000000000000000000000000000 W
b00000000 X
b00000000000000000000000000100000 Y
b00000000000000000000000000000011 Z
b00000000000000000000000000001000 [
b00000000000000000000000000001100 \
b00000000000000000000000000000101 ]
#1
1%
b00000000000000000000000011111111 &
b11111 )
b00110 *
b00001111111100000000001100010011 ,
b000011111111 -
b00000000000000000000000011111111 0
b00000000000000000000000011111111 2
0T
b00001111111100000000001100010011 W
#2
b00000000000000000000000011111111 :
1T
0U
#3
0T
#4
1$
b00000000000000000000000000000000 &
b00000000000000000000000000000100 '
b00000 )
b01010 *
b00000000000000000000010100010011 ,
b000000000000 -
b00000000000000000000000000001000 .
b00000000000000000000000000000000 0
b00000000000000000000000000000000 2
b00000100 3
1T
b00000000000000000000010100010011 W
b00000100 X
#5
0T
#6
b00000000000000000000000000001000 '
b01011 *
b00000000000000000000010110010011 ,
b00000000000000000000000000001100 .
b00001000 3
1T
b00000000000000000000010110010011 W
b00001000 X
#7
0T
#8
b00000000000000000000000000001100 '
b01011 (
b01010 *
b00000000000001011000010100010011 ,
b00000000000000000000000000010000 .
b00001100 3
1T
b00000000000001011000010100010011 W
b00001100 X
#9
0T
#10
0$
b00000000000000000000000000000001 &
b00000000000000000000000000010000 '
b00001 )
b01011 *
b00000000000101011000010110010011 ,
b000000000001 -
b00000000000000000000000000010100 .
b00000000000000000000000000000001 0
b00000000000000000000000000000001 2
b00010000 3
1T
b00000000000101011000010110010011 W
b00010000 X
#11
0T
#12
1#
0%
b11111111111111111111111111111000 &
b00000000000000000000000000010100 '
b00110 )
b11001 *
b111 +
b11111110011001011001110011100011 ,
b111111111100 -
b00000000000000000000000000001100 .
b00000000000000000000000000000001 /
b00000000000000000000000011111111 0
b00000000000000000000000011111111 1
b00000000000000000000000000000000 2
b00010100 3
b00000000000000000000000000000001 ?
1T
b00000000000000000000000000000001 V
b11111110011001011001110011100011 W
b00010100 X
#13
0T
#14
0#
1%
b00000000000000000000000000000000 &
b00000000000000000000000000001100 '
b00000 )
b01010 *
b000 +
b00000000000001011000010100010011 ,
b000000000000 -
b00000000000000000000000000010000 .
b00000000000000000000000000000000 0
b00000000000000000000000000000000 1
b00000000000000000000000000000001 2
b00001100 3
1T
b00000000000001011000010100010011 W
b00001100 X
#15
0T
#16
1$
b00000000000000000000000000000001 &
b00000000000000000000000000010000 '
b00001 )
b01011 *
b00000000000101011000010110010011 ,
b000000000001 -
b00000000000000000000000000010100 .
b00000000000000000000000000000001 0
b00000000000000000000000000000010 2
b00010000 3
b00000000000000000000000000000001 >
1T
b00000000000101011000010110010011 W
b00010000 X
#17
0T
#18
1#
0$
0%
b11111111111111111111111111111000 &
b00000000000000000000000000010100 '
b00110 )
b11001 *
b111 +
b11111110011001011001110011100011 ,
b111111111100 -
b00000000000000000000000000001100 .
b00000000000000000000000000000010 /
b00000000000000000000000011111111 0
b00000000000000000000000011111111 1
b00000000000000000000000000000000 2
b00010100 3
b00000000000000000000000000000010 ?
1T
b00000000000000000000000000000010 V
b11111110011001011001110011100011 W
b00010100 X
#19
0T
#20
0#
1%
b00000000000000000000000000000000 &
b00000000000000000000000000001100 '
b00000 )
b01010 *
b000 +
b00000000000001011000010100010011 ,
b000000000000 -
b00000000000000000000000000010000 .
b00000000000000000000000000000000 0
b00000000000000000000000000000000 1
b00000000000000000000000000000010 2
b00001100 3
1T
b00000000000001011000010100010011 W
b00001100 X
#21
0T
#22
b00000000000000000000000000000001 &
b00000000000000000000000000010000 '
b00001 )
b01011 *
b00000000000101011000010110010011 ,
b000000000001 -
b00000000000000000000000000010100 .
b00000000000000000000000000000001 0
b00000000000000000000000000000011 2
b00010000 3
b00000000000000000000000000000010 >
1T
b00000000000101011000010110010011 W
b00010000 X
#23
0T
#24
1#
0%
b11111111111111111111111111111000 &
b00000000000000000000000000010100 '
b00110 )
b11001 *
b111 +
b11111110011001011001110011100011 ,
b111111111100 -
b00000000000000000000000000001100 .
b00000000000000000000000000000011 /
b00000000000000000000000011111111 0
b00000000000000000000000011111111 1
b00000000000000000000000000000000 2
b00010100 3
b00000000000000000000000000000011 ?
1T
b00000000000000000000000000000011 V
b11111110011001011001110011100011 W
b00010100 X
#25
0T
#26
0#
1%
b00000000000000000000000000000000 &
b00000000000000000000000000001100 '
b00000 )
b01010 *
b000 +
b00000000000001011000010100010011 ,
b000000000000 -
b00000000000000000000000000010000 .
b00000000000000000000000000000000 0
b00000000000000000000000000000000 1
b00000000000000000000000000000011 2
b00001100 3
1T
b00000000000001011000010100010011 W
b00001100 X
#27
0T
#28
b00000000000000000000000000000001 &
b00000000000000000000000000010000 '
b00001 )
b01011 *
b00000000000101011000010110010011 ,
b000000000001 -
b00000000000000000000000000010100 .
b00000000000000000000000000000001 0
b00000000000000000000000000000100 2
b00010000 3
b00000000000000000000000000000011 >
1T
b00000000000101011000010110010011 W
b00010000 X
#29
0T
#30
1#
0%
b11111111111111111111111111111000 &
b00000000000000000000000000010100 '
b00110 )
b11001 *
b111 +
b11111110011001011001110011100011 ,
b111111111100 -
b00000000000000000000000000001100 .
b00000000000000000000000000000100 /
b00000000000000000000000011111111 0
b00000000000000000000000011111111 1
b00000000000000000000000000000000 2
b00010100 3
b00000000000000000000000000000100 ?
1T
b00000000000000000000000000000100 V
b11111110011001011001110011100011 W
b00010100 X
#31
0T
#32
0#
1%
b00000000000000000000000000000000 &
b00000000000000000000000000001100 '
b00000 )
b01010 *
b000 +
b00000000000001011000010100010011 ,
b000000000000 -
b00000000000000000000000000010000 .
b00000000000000000000000000000000 0
b00000000000000000000000000000000 1
b00000000000000000000000000000100 2
b00001100 3
1T
b00000000000001011000010100010011 W
b00001100 X
#33
0T
#34
b00000000000000000000000000000001 &
b00000000000000000000000000010000 '
b00001 )
b01011 *
b00000000000101011000010110010011 ,
b000000000001 -
b00000000000000000000000000010100 .
b00000000000000000000000000000001 0
b00000000000000000000000000000101 2
b00010000 3
b00000000000000000000000000000100 >
1T
b00000000000101011000010110010011 W
b00010000 X
#35
0T
#36
1#
0%
b11111111111111111111111111111000 &
b00000000000000000000000000010100 '
b00110 )
b11001 *
b111 +
b11111110011001011001110011100011 ,
b111111111100 -
b00000000000000000000000000001100 .
b00000000000000000000000000000101 /
b00000000000000000000000011111111 0
b00000000000000000000000011111111 1
b00000000000000000000000000000000 2
b00010100 3
b00000000000000000000000000000101 ?
1T
b00000000000000000000000000000101 V
b11111110011001011001110011100011 W
b00010100 X
#37
0T
#38
0#
1%
b00000000000000000000000000000000 &
b00000000000000000000000000001100 '
b00000 )
b01010 *
b000 +
b00000000000001011000010100010011 ,
b000000000000 -
b00000000000000000000000000010000 .
b00000000000000000000000000000000 0
b00000000000000000000000000000000 1
b00000000000000000000000000000101 2
b00001100 3
1T
b00000000000001011000010100010011 W
b00001100 X
#39
0T
#40
b00000000000000000000000000000001 &
b00000000000000000000000000010000 '
b00001 )
b01011 *
b00000000000101011000010110010011 ,
b000000000001 -
b00000000000000000000000000010100 .
b00000000000000000000000000000001 0
b00000000000000000000000000000110 2
b00010000 3
b00000000000000000000000000000101 >
1T
b00000000000101011000010110010011 W
b00010000 X
#41
0T
#42
1#
0%
b11111111111111111111111111111000 &
b00000000000000000000000000010100 '
b00110 )
b11001 *
b111 +
b11111110011001011001110011100011 ,
b111111111100 -
b00000000000000000000000000001100 .
b00000000000000000000000000000110 /
b00000000000000000000000011111111 0
b00000000000000000000000011111111 1
b00000000000000000000000000000000 2
b00010100 3
b00000000000000000000000000000110 ?
1T
b00000000000000000000000000000110 V
b11111110011001011001110011100011 W
b00010100 X
#43
0T
#44
0#
1%
b00000000000000000000000000000000 &
b00000000000000000000000000001100 '
b00000 )
b01010 *
b000 +
b00000000000001011000010100010011 ,
b000000000000 -
b00000000000000000000000000010000 .
b00000000000000000000000000000000 0
b00000000000000000000000000000000 1
b00000000000000000000000000000110 2
b00001100 3
1T
b00000000000001011000010100010011 W
b00001100 X
#45
0T
#46
b00000000000000000000000000000001 &
b00000000000000000000000000010000 '
b00001 )
b01011 *
b00000000000101011000010110010011 ,
b000000000001 -
b00000000000000000000000000010100 .
b00000000000000000000000000000001 0
b00000000000000000000000000000111 2
b00010000 3
b00000000000000000000000000000110 >
1T
b00000000000101011000010110010011 W
b00010000 X
#47
0T
#48
1#
0%
b11111111111111111111111111111000 &
b00000000000000000000000000010100 '
b00110 )
b11001 *
b111 +
b11111110011001011001110011100011 ,
b111111111100 -
b00000000000000000000000000001100 .
b00000000000000000000000000000111 /
b00000000000000000000000011111111 0
b00000000000000000000000011111111 1
b00000000000000000000000000000000 2
b00010100 3
b00000000000000000000000000000111 ?
1T
b00000000000000000000000000000111 V
b11111110011001011001110011100011 W
b00010100 X
#49
0T
#50
0#
1%
b00000000000000000000000000000000 &
b00000000000000000000000000001100 '
b00000 )
b01010 *
b000 +
b00000000000001011000010100010011 ,
b000000000000 -
b00000000000000000000000000010000 .
b00000000000000000000000000000000 0
b00000000000000000000000000000000 1
b00000000000000000000000000000111 2
b00001100 3
1T
b00000000000001011000010100010011 W
b00001100 X
#51
0T
#52
b00000000000000000000000000000001 &
b00000000000000000000000000010000 '
b00001 )
b01011 *
b00000000000101011000010110010011 ,
b000000000001 -
b00000000000000000000000000010100 .
b00000000000000000000000000000001 0
b00000000000000000000000000001000 2
b00010000 3
b00000000000000000000000000000111 >
1T
b00000000000101011000010110010011 W
b00010000 X
#53
0T
#54
1#
0%
b11111111111111111111111111111000 &
b00000000000000000000000000010100 '
b00110 )
b11001 *
b111 +
b11111110011001011001110011100011 ,
b111111111100 -
b00000000000000000000000000001100 .
b00000000000000000000000000001000 /
b00000000000000000000000011111111 0
b00000000000000000000000011111111 1
b00000000000000000000000000000000 2
b00010100 3
b00000000000000000000000000001000 ?
1T
b00000000000000000000000000001000 V
b11111110011001011001110011100011 W
b00010100 X
#55
0T
#56
0#
1%
b00000000000000000000000000000000 &
b00000000000000000000000000001100 '
b00000 )
b01010 *
b000 +
b00000000000001011000010100010011 ,
b000000000000 -
b00000000000000000000000000010000 .
b00000000000000000000000000000000 0
b00000000000000000000000000000000 1
b00000000000000000000000000001000 2
b00001100 3
1T
b00000000000001011000010100010011 W
b00001100 X
#57
0T
#58
b00000000000000000000000000000001 &
b00000000000000000000000000010000 '
b00001 )
b01011 *
b00000000000101011000010110010011 ,
b000000000001 -
b00000000000000000000000000010100 .
b00000000000000000000000000000001 0
b00000000000000000000000000001001 2
b00010000 3
b00000000000000000000000000001000 >
1T
b00000000000101011000010110010011 W
b00010000 X
#59
0T
#60
1#
0%
b11111111111111111111111111111000 &
b00000000000000000000000000010100 '
b00110 )
b11001 *
b111 +
b11111110011001011001110011100011 ,
b111111111100 -
b00000000000000000000000000001100 .
b00000000000000000000000000001001 /
b00000000000000000000000011111111 0
b00000000000000000000000011111111 1
b00000000000000000000000000000000 2
b00010100 3
b00000000000000000000000000001001 ?
1T
b00000000000000000000000000001001 V
b11111110011001011001110011100011 W
b00010100 X
#61
0T
#62
0#
1%
b00000000000000000000000000000000 &
b00000000000000000000000000001100 '
b00000 )
b01010 *
b000 +
b00000000000001011000010100010011 ,
b000000000000 -
b00000000000000000000000000010000 .
b00000000000000000000000000000000 0
b00000000000000000000000000000000 1
b00000000000000000000000000001001 2
b00001100 3
1T
b00000000000001011000010100010011 W
b00001100 X
#63
0T
#64
b00000000000000000000000000000001 &
b00000000000000000000000000010000 '
b00001 )
b01011 *
b00000000000101011000010110010011 ,
b000000000001 -
b00000000000000000000000000010100 .
b00000000000000000000000000000001 0
b00000000000000000000000000001010 2
b00010000 3
b00000000000000000000000000001001 >
1T
b00000000000101011000010110010011 W
b00010000 X
#65
0T
#66
1#
0%
b11111111111111111111111111111000 &
b00000000000000000000000000010100 '
b00110 )
b11001 *
b111 +
b11111110011001011001110011100011 ,
b111111111100 -
b00000000000000000000000000001100 .
b00000000000000000000000000001010 /
b00000000000000000000000011111111 0
b00000000000000000000000011111111 1
b00000000000000000000000000000000 2
b00010100 3
b00000000000000000000000000001010 ?
1T
b00000000000000000000000000001010 V
b11111110011001011001110011100011 W
b00010100 X
#67
0T
#68
0#
1%
b00000000000000000000000000000000 &
b00000000000000000000000000001100 '
b00000 )
b01010 *
b000 +
b00000000000001011000010100010011 ,
b000000000000 -
b00000000000000000000000000010000 .
b00000000000000000000000000000000 0
b00000000000000000000000000000000 1
b00000000000000000000000000001010 2
b00001100 3
1T
b00000000000001011000010100010011 W
b00001100 X
#69
0T
#70
b00000000000000000000000000000001 &
b00000000000000000000000000010000 '
b00001 )
b01011 *
b00000000000101011000010110010011 ,
b000000000001 -
b00000000000000000000000000010100 .
b00000000000000000000000000000001 0
b00000000000000000000000000001011 2
b00010000 3
b00000000000000000000000000001010 >
1T
b00000000000101011000010110010011 W
b00010000 X
#71
0T
#72
1#
0%
b11111111111111111111111111111000 &
b00000000000000000000000000010100 '
b00110 )
b11001 *
b111 +
b11111110011001011001110011100011 ,
b111111111100 -
b00000000000000000000000000001100 .
b00000000000000000000000000001011 /
b00000000000000000000000011111111 0
b00000000000000000000000011111111 1
b00000000000000000000000000000000 2
b00010100 3
b00000000000000000000000000001011 ?
1T
b00000000000000000000000000001011 V
b11111110011001011001110011100011 W
b00010100 X
#73
0T
#74
0#
1%
b00000000000000000000000000000000 &
b00000000000000000000000000001100 '
b00000 )
b01010 *
b000 +
b00000000000001011000010100010011 ,
b000000000000 -
b00000000000000000000000000010000 .
b00000000000000000000000000000000 0
b00000000000000000000000000000000 1
b00000000000000000000000000001011 2
b00001100 3
1T
b00000000000001011000010100010011 W
b00001100 X
#75
0T
#76
b00000000000000000000000000000001 &
b00000000000000000000000000010000 '
b00001 )
b01011 *
b00000000000101011000010110010011 ,
b000000000001 -
b00000000000000000000000000010100 .
b00000000000000000000000000000001 0
b00000000000000000000000000001100 2
b00010000 3
b00000000000000000000000000001011 >
1T
b00000000000101011000010110010011 W
b00010000 X
#77
0T
#78
1#
0%
b11111111111111111111111111111000 &
b00000000000000000000000000010100 '
b00110 )
b11001 *
b111 +
b11111110011001011001110011100011 ,
b111111111100 -
b00000000000000000000000000001100 .
b00000000000000000000000000001100 /
b00000000000000000000000011111111 0
b00000000000000000000000011111111 1
b00000000000000000000000000000000 2
b00010100 3
b00000000000000000000000000001100 ?
1T
b00000000000000000000000000001100 V
b11111110011001011001110011100011 W
b00010100 X
#79
0T
#80
0#
1%
b00000000000000000000000000000000 &
b00000000000000000000000000001100 '
b00000 )
b01010 *
b000 +
b00000000000001011000010100010011 ,
b000000000000 -
b00000000000000000000000000010000 .
b00000000000000000000000000000000 0
b00000000000000000000000000000000 1
b00000000000000000000000000001100 2
b00001100 3
1T
b00000000000001011000010100010011 W
b00001100 X
#81
0T
#82
b00000000000000000000000000000001 &
b00000000000000000000000000010000 '
b00001 )
b01011 *
b00000000000101011000010110010011 ,
b000000000001 -
b00000000000000000000000000010100 .
b00000000000000000000000000000001 0
b00000000000000000000000000001101 2
b00010000 3
b00000000000000000000000000001100 >
1T
b00000000000101011000010110010011 W
b00010000 X
#83
0T
#84
1#
0%
b11111111111111111111111111111000 &
b00000000000000000000000000010100 '
b00110 )
b11001 *
b111 +
b11111110011001011001110011100011 ,
b111111111100 -
b00000000000000000000000000001100 .
b00000000000000000000000000001101 /
b00000000000000000000000011111111 0
b00000000000000000000000011111111 1
b00000000000000000000000000000000 2
b00010100 3
b00000000000000000000000000001101 ?
1T
b00000000000000000000000000001101 V
b11111110011001011001110011100011 W
b00010100 X
#85
0T
#86
0#
1%
b00000000000000000000000000000000 &
b00000000000000000000000000001100 '
b00000 )
b01010 *
b000 +
b00000000000001011000010100010011 ,
b000000000000 -
b00000000000000000000000000010000 .
b00000000000000000000000000000000 0
b00000000000000000000000000000000 1
b00000000000000000000000000001101 2
b00001100 3
1T
b00000000000001011000010100010011 W
b00001100 X
#87
0T
#88
b00000000000000000000000000000001 &
b00000000000000000000000000010000 '
b00001 )
b01011 *
b00000000000101011000010110010011 ,
b000000000001 -
b00000000000000000000000000010100 .
b00000000000000000000000000000001 0
b00000000000000000000000000001110 2
b00010000 3
b00000000000000000000000000001101 >
1T
b00000000000101011000010110010011 W
b00010000 X
#89
0T
#90
1#
0%
b11111111111111111111111111111000 &
b00000000000000000000000000010100 '
b00110 )
b11001 *
b111 +
b11111110011001011001110011100011 ,
b111111111100 -
b00000000000000000000000000001100 .
b00000000000000000000000000001110 /
b00000000000000000000000011111111 0
b00000000000000000000000011111111 1
b00000000000000000000000000000000 2
b00010100 3
b00000000000000000000000000001110 ?
1T
b00000000000000000000000000001110 V
b11111110011001011001110011100011 W
b00010100 X
#91
0T
#92
0#
1%
b00000000000000000000000000000000 &
b00000000000000000000000000001100 '
b00000 )
b01010 *
b000 +
b00000000000001011000010100010011 ,
b000000000000 -
b00000000000000000000000000010000 .
b00000000000000000000000000000000 0
b00000000000000000000000000000000 1
b00000000000000000000000000001110 2
b00001100 3
1T
b00000000000001011000010100010011 W
b00001100 X
#93
0T
#94
b00000000000000000000000000000001 &
b00000000000000000000000000010000 '
b00001 )
b01011 *
b00000000000101011000010110010011 ,
b000000000001 -
b00000000000000000000000000010100 .
b00000000000000000000000000000001 0
b00000000000000000000000000001111 2
b00010000 3
b00000000000000000000000000001110 >
1T
b00000000000101011000010110010011 W
b00010000 X
#95
0T
#96
1#
0%
b11111111111111111111111111111000 &
b00000000000000000000000000010100 '
b00110 )
b11001 *
b111 +
b11111110011001011001110011100011 ,
b111111111100 -
b00000000000000000000000000001100 .
b00000000000000000000000000001111 /
b00000000000000000000000011111111 0
b00000000000000000000000011111111 1
b00000000000000000000000000000000 2
b00010100 3
b00000000000000000000000000001111 ?
1T
b00000000000000000000000000001111 V
b11111110011001011001110011100011 W
b00010100 X
#97
0T
#98
0#
1%
b00000000000000000000000000000000 &
b00000000000000000000000000001100 '
b00000 )
b01010 *
b000 +
b00000000000001011000010100010011 ,
b000000000000 -
b00000000000000000000000000010000 .
b00000000000000000000000000000000 0
b00000000000000000000000000000000 1
b00000000000000000000000000001111 2
b00001100 3
1T
b00000000000001011000010100010011 W
b00001100 X
#99
0T
#100
b00000000000000000000000000000001 &
b00000000000000000000000000010000 '
b00001 )
b01011 *
b00000000000101011000010110010011 ,
b000000000001 -
b00000000000000000000000000010100 .
b00000000000000000000000000000001 0
b00000000000000000000000000010000 2
b00010000 3
b00000000000000000000000000001111 >
1T
b00000000000101011000010110010011 W
b00010000 X
#101
0T
#102
1#
0%
b11111111111111111111111111111000 &
b00000000000000000000000000010100 '
b00110 )
b11001 *
b111 +
b11111110011001011001110011100011 ,
b111111111100 -
b00000000000000000000000000001100 .
b00000000000000000000000000010000 /
b00000000000000000000000011111111 0
b00000000000000000000000011111111 1
b00000000000000000000000000000000 2
b00010100 3
b00000000000000000000000000010000 ?
1T
b00000000000000000000000000010000 V
b11111110011001011001110011100011 W
b00010100 X
#103
0T
#104
0#
1%
b00000000000000000000000000000000 &
b00000000000000000000000000001100 '
b00000 )
b01010 *
b000 +
b00000000000001011000010100010011 ,
b000000000000 -
b00000000000000000000000000010000 .
b00000000000000000000000000000000 0
b00000000000000000000000000000000 1
b00000000000000000000000000010000 2
b00001100 3
1T
b00000000000001011000010100010011 W
b00001100 X
#105
0T
#106
b00000000000000000000000000000001 &
b00000000000000000000000000010000 '
b00001 )
b01011 *
b00000000000101011000010110010011 ,
b000000000001 -
b00000000000000000000000000010100 .
b00000000000000000000000000000001 0
b00000000000000000000000000010001 2
b00010000 3
b00000000000000000000000000010000 >
1T
b00000000000101011000010110010011 W
b00010000 X
#107
0T
#108
1#
0%
b11111111111111111111111111111000 &
b00000000000000000000000000010100 '
b00110 )
b11001 *
b111 +
b11111110011001011001110011100011 ,
b111111111100 -
b00000000000000000000000000001100 .
b00000000000000000000000000010001 /
b00000000000000000000000011111111 0
b00000000000000000000000011111111 1
b00000000000000000000000000000000 2
b00010100 3
b00000000000000000000000000010001 ?
1T
b00000000000000000000000000010001 V
b11111110011001011001110011100011 W
b00010100 X
#109
0T
#110
0#
1%
b00000000000000000000000000000000 &
b00000000000000000000000000001100 '
b00000 )
b01010 *
b000 +
b00000000000001011000010100010011 ,
b000000000000 -
b00000000000000000000000000010000 .
b00000000000000000000000000000000 0
b00000000000000000000000000000000 1
b00000000000000000000000000010001 2
b00001100 3
1T
b00000000000001011000010100010011 W
b00001100 X
#111
0T
#112
b00000000000000000000000000000001 &
b00000000000000000000000000010000 '
b00001 )
b01011 *
b00000000000101011000010110010011 ,
b000000000001 -
b00000000000000000000000000010100 .
b00000000000000000000000000000001 0
b00000000000000000000000000010010 2
b00010000 3
b00000000000000000000000000010001 >
1T
b00000000000101011000010110010011 W
b00010000 X
#113
0T
#114
1#
0%
b11111111111111111111111111111000 &
b00000000000000000000000000010100 '
b00110 )
b11001 *
b111 +
b11111110011001011001110011100011 ,
b111111111100 -
b00000000000000000000000000001100 .
b00000000000000000000000000010010 /
b00000000000000000000000011111111 0
b00000000000000000000000011111111 1
b00000000000000000000000000000000 2
b00010100 3
b00000000000000000000000000010010 ?
1T
b00000000000000000000000000010010 V
b11111110011001011001110011100011 W
b00010100 X
#115
0T
#116
0#
1%
b00000000000000000000000000000000 &
b00000000000000000000000000001100 '
b00000 )
b01010 *
b000 +
b00000000000001011000010100010011 ,
b000000000000 -
b00000000000000000000000000010000 .
b00000000000000000000000000000000 0
b00000000000000000000000000000000 1
b00000000000000000000000000010010 2
b00001100 3
1T
b00000000000001011000010100010011 W
b00001100 X
#117
0T
#118
b00000000000000000000000000000001 &
b00000000000000000000000000010000 '
b00001 )
b01011 *
b00000000000101011000010110010011 ,
b000000000001 -
b00000000000000000000000000010100 .
b00000000000000000000000000000001 0
b00000000000000000000000000010011 2
b00010000 3
b00000000000000000000000000010010 >
1T
b00000000000101011000010110010011 W
b00010000 X
#119
0T
#120
1#
0%
b11111111111111111111111111111000 &
b00000000000000000000000000010100 '
b00110 )
b11001 *
b111 +
b11111110011001011001110011100011 ,
b111111111100 -
b00000000000000000000000000001100 .
b00000000000000000000000000010011 /
b00000000000000000000000011111111 0
b00000000000000000000000011111111 1
b00000000000000000000000000000000 2
b00010100 3
b00000000000000000000000000010011 ?
1T
b00000000000000000000000000010011 V
b11111110011001011001110011100011 W
b00010100 X
#121
0T
#122
0#
1%
b00000000000000000000000000000000 &
b00000000000000000000000000001100 '
b00000 )
b01010 *
b000 +
b00000000000001011000010100010011 ,
b000000000000 -
b00000000000000000000000000010000 .
b00000000000000000000000000000000 0
b00000000000000000000000000000000 1
b00000000000000000000000000010011 2
b00001100 3
1T
b00000000000001011000010100010011 W
b00001100 X
#123
0T
#124
b00000000000000000000000000000001 &
b00000000000000000000000000010000 '
b00001 )
b01011 *
b00000000000101011000010110010011 ,
b000000000001 -
b00000000000000000000000000010100 .
b00000000000000000000000000000001 0
b00000000000000000000000000010100 2
b00010000 3
b00000000000000000000000000010011 >
1T
b00000000000101011000010110010011 W
b00010000 X
#125
0T
